<?xml version="1.0" encoding="utf-8"?>
<!-- Generator: Adobe Illustrator 17.0.0, SVG Export Plug-In . SVG Version: 6.00 Build 0)  -->
<!DOCTYPE svg PUBLIC "-//W3C//DTD SVG 1.1//EN" "http://www.w3.org/Graphics/SVG/1.1/DTD/svg11.dtd">
<svg version="1.1" id="Layer_1" xmlns="http://www.w3.org/2000/svg" xmlns:xlink="http://www.w3.org/1999/xlink" x="0px" y="0px"
	 width="140px" height="40px" viewBox="0 0 140 40" enable-background="new 0 0 140 40" xml:space="preserve">
<g>
	<rect x="0" y="0" fill="none" width="140" height="40"/>
	<g>
		<g>
			<path fill="#231815" d="M54.745,28.727c0,0.084-0.011,0.176-0.033,0.277c-0.021,0.1-0.046,0.152-0.066,0.152
				c-0.016,0-0.025-0.008-0.025-0.021c0-0.008,0.001-0.015,0.004-0.025c0.042-0.115,0.059-0.234,0.059-0.369
				c0-0.205-0.06-0.372-0.182-0.499c-0.121-0.122-0.28-0.185-0.481-0.185c-0.269,0-0.546,0.09-0.832,0.267
				c0.244,0.198,0.364,0.418,0.364,0.664c0,0.21-0.083,0.393-0.247,0.543c-0.169,0.157-0.365,0.235-0.589,0.235
				c-0.089,0-0.185-0.019-0.284-0.051c-0.101-0.036-0.152-0.07-0.152-0.101c0.002-0.009,0.012-0.015,0.021-0.015
				c0.006,0,0.021,0.005,0.038,0.013c0.101,0.056,0.202,0.086,0.306,0.086c0.186,0,0.343-0.084,0.474-0.241
				c0.136-0.156,0.202-0.352,0.202-0.571c0-0.188-0.069-0.357-0.207-0.509c-0.354,0.268-0.689,0.729-1.007,1.393
				c-0.192,0.401-0.368,0.694-0.526,0.871c-0.161,0.178-0.385,0.34-0.674,0.479c-0.34,0.168-0.645,0.249-0.912,0.249
				c-0.217,0-0.398-0.05-0.544-0.15c-0.146-0.103-0.218-0.225-0.218-0.378c0-0.083,0.023-0.154,0.075-0.217
				c0.05-0.058,0.108-0.088,0.176-0.088c0.101,0,0.149,0.054,0.149,0.165c0,0.054-0.018,0.105-0.049,0.143
				c-0.034,0.038-0.076,0.058-0.126,0.058c-0.085,0-0.123-0.043-0.12-0.132c0-0.036-0.003-0.053-0.009-0.053
				c-0.028,0-0.04,0.043-0.04,0.129c0,0.135,0.066,0.25,0.197,0.337c0.133,0.091,0.301,0.137,0.504,0.137
				c0.357,0,0.68-0.132,0.969-0.397c0.129-0.111,0.237-0.233,0.328-0.35c0.098-0.135,0.311-0.449,0.639-0.951
				c0.164-0.246,0.359-0.494,0.584-0.744c0.222-0.244,0.412-0.427,0.568-0.534c-0.254-0.22-0.626-0.329-1.119-0.329
				c-0.685,0-1.281,0.249-1.789,0.746c-0.416,0.408-0.625,0.791-0.625,1.155c0,0.181,0.059,0.325,0.176,0.435
				c0.117,0.106,0.276,0.16,0.477,0.16c0.328,0,0.665-0.156,1.016-0.471c0.348-0.313,0.522-0.619,0.522-0.914
				c0-0.236-0.121-0.356-0.363-0.356c-0.242,0-0.503,0.137-0.783,0.405c-0.277,0.272-0.418,0.527-0.418,0.767
				c0,0.056,0.021,0.104,0.063,0.146c0.038,0.044,0.082,0.065,0.135,0.065c0.029,0,0.043,0.007,0.043,0.021
				c0,0.011-0.014,0.018-0.047,0.018c-0.078,0-0.145-0.033-0.199-0.105c-0.053-0.07-0.08-0.154-0.08-0.261
				c0-0.251,0.137-0.501,0.418-0.737c0.279-0.242,0.564-0.363,0.858-0.363c0.28,0,0.421,0.132,0.421,0.387
				c0,0.315-0.18,0.633-0.535,0.957c-0.359,0.32-0.711,0.482-1.057,0.482c-0.227,0-0.408-0.068-0.545-0.201
				c-0.135-0.14-0.203-0.321-0.203-0.547c0-0.462,0.26-0.882,0.779-1.264c0.521-0.381,1.099-0.569,1.727-0.569
				c0.477,0,0.881,0.107,1.207,0.321c0.297-0.184,0.588-0.279,0.865-0.279c0.217,0,0.395,0.065,0.526,0.197
				C54.68,28.341,54.745,28.513,54.745,28.727z"/>
			<path fill="#231815" d="M54.364,30.496c0,0.015-0.047,0.077-0.146,0.184c-0.123,0.135-0.24,0.205-0.346,0.205
				c-0.124,0-0.188-0.073-0.188-0.214c0-0.048,0.01-0.104,0.029-0.176c-0.103,0.092-0.187,0.18-0.252,0.267
				c-0.063,0.089-0.176,0.27-0.334,0.541c-0.088-0.007-0.139-0.012-0.152-0.012c-0.008,0-0.057,0.005-0.15,0.012l0.4-0.654
				c0.203-0.328,0.305-0.529,0.305-0.608c0-0.045-0.021-0.069-0.057-0.069c-0.094,0-0.26,0.178-0.502,0.524
				c-0.014,0.022-0.026,0.033-0.039,0.033c-0.006,0-0.01-0.006-0.01-0.015c0.004-0.008,0.006-0.016,0.01-0.019l0.043-0.062
				c0.251-0.331,0.423-0.496,0.512-0.496c0.131,0,0.197,0.084,0.197,0.249c0,0.127-0.066,0.293-0.199,0.501
				c0.084-0.099,0.163-0.177,0.242-0.238c0.061-0.146,0.138-0.268,0.233-0.366c0.092-0.098,0.173-0.146,0.25-0.146
				c0.051,0,0.075,0.023,0.075,0.065c0,0.078-0.112,0.189-0.341,0.338c-0.035,0.023-0.086,0.055-0.158,0.101l-0.032,0.023
				c-0.021,0.076-0.035,0.139-0.035,0.188c0,0.137,0.052,0.205,0.155,0.205c0.129,0,0.264-0.107,0.416-0.321
				c0.031-0.039,0.052-0.056,0.058-0.056C54.358,30.481,54.364,30.485,54.364,30.496z"/>
			<path fill="#231815" d="M55.811,30.496c0,0.026-0.05,0.091-0.143,0.184c-0.145,0.141-0.278,0.215-0.398,0.215
				c-0.051,0-0.096-0.012-0.135-0.031c-0.217,0.306-0.418,0.457-0.609,0.457c-0.098,0-0.182-0.041-0.252-0.12
				c-0.069-0.083-0.101-0.178-0.101-0.294c0-0.249,0.166-0.489,0.493-0.725c0.231-0.163,0.424-0.244,0.573-0.244
				c0.142,0,0.211,0.074,0.211,0.226c0,0.188-0.098,0.412-0.297,0.674c0.033,0.021,0.07,0.031,0.109,0.031
				c0.075,0,0.16-0.035,0.259-0.103c0.099-0.069,0.179-0.149,0.24-0.243c0.019-0.026,0.032-0.037,0.04-0.037
				C55.808,30.485,55.811,30.489,55.811,30.496z M55.415,30.17c0-0.135-0.059-0.199-0.176-0.199c-0.151,0-0.332,0.144-0.547,0.425
				c-0.213,0.284-0.32,0.518-0.32,0.71c0,0.114,0.055,0.171,0.16,0.171c0.177,0,0.369-0.146,0.58-0.435
				c-0.049-0.048-0.072-0.105-0.072-0.159c0-0.083,0.033-0.163,0.096-0.244c0.064-0.086,0.125-0.129,0.188-0.129
				c0.025,0,0.043,0.015,0.051,0.051C55.401,30.302,55.415,30.24,55.415,30.17z"/>
			<path fill="#231815" d="M58.026,28.789c-0.615,0.973-0.999,1.593-1.158,1.864c-0.162,0.275-0.242,0.449-0.242,0.521
				c0,0.074,0.031,0.11,0.098,0.11c0.149,0,0.402-0.258,0.756-0.778c0.01-0.017,0.018-0.024,0.027-0.024
				c0.01,0,0.014,0.004,0.014,0.015c-0.002,0.003-0.008,0.021-0.023,0.041l-0.104,0.144c-0.311,0.425-0.535,0.64-0.683,0.64
				c-0.073,0-0.134-0.029-0.181-0.085c-0.047-0.057-0.07-0.13-0.07-0.215c0-0.092,0.029-0.19,0.088-0.31
				c-0.285,0.406-0.497,0.609-0.637,0.609c-0.086,0-0.158-0.038-0.217-0.11c-0.059-0.076-0.088-0.17-0.088-0.281
				c0-0.268,0.166-0.512,0.502-0.733c0.266-0.172,0.476-0.258,0.624-0.258c0.102,0,0.153,0.048,0.153,0.146
				c0,0.048-0.014,0.096-0.043,0.155l0.869-1.465c0.054,0.017,0.107,0.025,0.16,0.025C57.886,28.799,57.935,28.795,58.026,28.789z
				 M56.852,30.102c0-0.088-0.043-0.132-0.121-0.132c-0.147,0-0.342,0.148-0.582,0.44c-0.239,0.291-0.357,0.529-0.357,0.706
				c0,0.114,0.043,0.167,0.131,0.167c0.133,0,0.355-0.228,0.674-0.681C56.767,30.36,56.852,30.19,56.852,30.102z"/>
			<path fill="#231815" d="M59.107,30.496c0,0.039-0.12,0.195-0.356,0.476c-0.197,0.233-0.352,0.349-0.467,0.349
				c-0.072,0-0.131-0.029-0.182-0.087c-0.052-0.059-0.076-0.128-0.076-0.207c0-0.064,0.032-0.152,0.094-0.268l-0.047,0.064
				c-0.15,0.195-0.26,0.32-0.332,0.387c-0.074,0.072-0.148,0.11-0.217,0.11c-0.072,0-0.131-0.029-0.18-0.085
				c-0.049-0.056-0.074-0.125-0.074-0.206c0-0.096,0.037-0.204,0.111-0.322l0.445-0.746c0.055,0.013,0.1,0.02,0.129,0.02
				c0.033,0,0.088-0.007,0.164-0.02l-0.578,0.954c-0.061,0.102-0.09,0.186-0.09,0.259c0,0.074,0.032,0.11,0.094,0.11
				c0.164,0,0.426-0.303,0.789-0.915l0.24-0.408c0.051,0.013,0.094,0.02,0.128,0.02c0.042,0,0.099-0.007,0.177-0.02L58.486,30.6
				c-0.183,0.298-0.276,0.494-0.276,0.58c0,0.069,0.031,0.105,0.101,0.105c0.128,0,0.341-0.206,0.637-0.617l0.074-0.105l0.045-0.057
				c0.007-0.017,0.018-0.024,0.018-0.024C59.102,30.481,59.107,30.485,59.107,30.496z"/>
			<path fill="#231815" d="M60.319,30.496c0,0.021-0.115,0.157-0.344,0.41c-0.254,0.275-0.467,0.414-0.643,0.414
				c-0.113,0-0.211-0.044-0.295-0.13c-0.08-0.088-0.122-0.191-0.122-0.313c0-0.139,0.054-0.278,0.166-0.426
				c0.11-0.147,0.261-0.275,0.448-0.379c0.158-0.091,0.287-0.136,0.387-0.136c0.121,0,0.182,0.069,0.182,0.215
				c0,0.105-0.04,0.222-0.115,0.329c-0.075,0.115-0.152,0.17-0.227,0.17c-0.074,0-0.111-0.04-0.111-0.11
				c0-0.085,0.076-0.165,0.227-0.237c0.115-0.058,0.172-0.132,0.172-0.223c0-0.072-0.039-0.11-0.115-0.11
				c-0.139,0-0.305,0.136-0.5,0.405c-0.197,0.27-0.297,0.498-0.297,0.679c0,0.155,0.072,0.23,0.217,0.23
				c0.225,0,0.529-0.255,0.916-0.762c0.023-0.027,0.037-0.041,0.046-0.041C60.319,30.483,60.319,30.487,60.319,30.496z"/>
			<path fill="#231815" d="M61.55,30.496c0,0-0.012,0.026-0.043,0.066l-0.104,0.129c-0.339,0.418-0.628,0.629-0.87,0.629
				c-0.113,0-0.21-0.043-0.287-0.125c-0.076-0.081-0.116-0.184-0.116-0.31c0-0.289,0.204-0.552,0.615-0.771
				c0.215-0.119,0.392-0.177,0.528-0.177c0.058,0,0.107,0.018,0.15,0.052c0.042,0.034,0.063,0.076,0.063,0.13
				c0,0.118-0.077,0.215-0.231,0.298c-0.154,0.079-0.408,0.161-0.769,0.231c-0.111,0.166-0.166,0.306-0.166,0.418
				c0,0.139,0.077,0.21,0.227,0.21c0.258,0,0.574-0.25,0.945-0.754c0.021-0.027,0.038-0.041,0.049-0.041
				C61.548,30.483,61.55,30.487,61.55,30.496z M61.346,30.047c0-0.049-0.027-0.076-0.085-0.076c-0.089,0-0.199,0.061-0.342,0.182
				c-0.139,0.114-0.277,0.272-0.414,0.459c0.234-0.058,0.434-0.146,0.596-0.251C61.265,30.25,61.346,30.148,61.346,30.047z"/>
			<path fill="#231815" d="M63.761,28.789c-0.611,0.973-0.996,1.593-1.157,1.864c-0.162,0.275-0.242,0.449-0.242,0.521
				c0,0.074,0.032,0.11,0.099,0.11c0.151,0,0.4-0.258,0.756-0.778c0.01-0.017,0.021-0.024,0.021-0.024
				c0.017,0,0.023,0.004,0.023,0.015c0,0-0.01,0.021-0.025,0.041l-0.105,0.144c-0.305,0.425-0.533,0.64-0.678,0.64
				c-0.076,0-0.138-0.029-0.184-0.085c-0.047-0.057-0.07-0.13-0.07-0.215c0-0.092,0.028-0.19,0.088-0.31
				c-0.285,0.406-0.498,0.609-0.637,0.609c-0.084,0-0.156-0.038-0.216-0.11c-0.059-0.076-0.089-0.17-0.089-0.281
				c0-0.268,0.17-0.512,0.502-0.733c0.266-0.172,0.473-0.258,0.625-0.258c0.101,0,0.152,0.048,0.152,0.146
				c0,0.048-0.014,0.096-0.041,0.155l0.867-1.465c0.055,0.017,0.107,0.025,0.16,0.025C63.621,28.799,63.673,28.795,63.761,28.789z
				 M62.586,30.102c0-0.088-0.04-0.132-0.12-0.132c-0.145,0-0.338,0.148-0.578,0.44c-0.24,0.291-0.361,0.529-0.361,0.706
				c0,0.114,0.043,0.167,0.133,0.167c0.133,0,0.357-0.228,0.674-0.681C62.503,30.36,62.586,30.19,62.586,30.102z"/>
			<path fill="#231815" d="M65.466,28.795l-1.104,1.733c0.174-0.234,0.301-0.389,0.387-0.473c0.083-0.079,0.166-0.118,0.241-0.118
				c0.091,0,0.167,0.036,0.224,0.108c0.059,0.076,0.086,0.169,0.086,0.28c0,0.249-0.156,0.488-0.468,0.726
				c-0.23,0.18-0.438,0.268-0.618,0.268c-0.088,0-0.152-0.031-0.207-0.098c-0.053-0.066-0.08-0.146-0.08-0.251
				c0-0.121,0.078-0.307,0.238-0.559l1.016-1.621c0.043,0.014,0.088,0.021,0.141,0.021C65.358,28.813,65.407,28.81,65.466,28.795z
				 M65.119,30.136c0-0.109-0.046-0.165-0.136-0.165c-0.119,0-0.321,0.199-0.604,0.592c-0.215,0.292-0.322,0.489-0.322,0.591
				c0,0.088,0.041,0.131,0.125,0.131c0.146,0,0.338-0.148,0.579-0.44C64.998,30.554,65.119,30.313,65.119,30.136z"/>
			<path fill="#231815" d="M67.013,30.496c0,0.026-0.09,0.138-0.271,0.337c-0.199,0.219-0.461,0.416-0.783,0.594l-0.119,0.215
				c-0.234,0.425-0.48,0.741-0.738,0.946c-0.266,0.215-0.496,0.322-0.691,0.322c-0.068,0-0.121-0.021-0.168-0.065
				c-0.043-0.039-0.064-0.093-0.064-0.154c0-0.329,0.375-0.669,1.13-1.019c0.062-0.029,0.155-0.074,0.279-0.129l0.036-0.022
				l0.43-0.769c-0.17,0.235-0.293,0.386-0.369,0.461c-0.076,0.07-0.152,0.108-0.23,0.108c-0.068,0-0.127-0.029-0.178-0.087
				c-0.048-0.057-0.072-0.124-0.072-0.2c0-0.093,0.057-0.239,0.172-0.434l0.375-0.639c0.036,0.008,0.082,0.013,0.131,0.013
				c0.042,0,0.1-0.008,0.172-0.019l-0.479,0.782c-0.137,0.225-0.207,0.368-0.207,0.435c0,0.076,0.034,0.112,0.1,0.112
				c0.176,0,0.449-0.313,0.814-0.938l0.227-0.386c0.036,0.008,0.082,0.013,0.137,0.013c0.046,0,0.1-0.008,0.166-0.019
				c-0.203,0.322-0.479,0.792-0.826,1.413c0.201-0.1,0.369-0.213,0.506-0.333c0.139-0.122,0.293-0.288,0.463-0.509
				c0.023-0.03,0.039-0.045,0.046-0.045C67.009,30.481,67.013,30.485,67.013,30.496z M65.597,31.561
				c-0.026,0.014-0.117,0.062-0.275,0.139c-0.74,0.369-1.109,0.698-1.109,0.99c0,0.125,0.068,0.186,0.203,0.186
				c0.172,0,0.344-0.095,0.514-0.279c0.174-0.19,0.384-0.515,0.639-0.985L65.597,31.561z"/>
			<path fill="#231815" d="M71.631,29.014c0,0.268-0.077,0.537-0.229,0.811c-0.152,0.277-0.361,0.519-0.625,0.729
				c-0.309,0.245-0.695,0.437-1.152,0.567c0.533,0.163,0.879,0.261,1.027,0.3c0.143,0.038,0.266,0.055,0.365,0.055
				c0.148,0,0.288-0.055,0.406-0.164c0.005-0.002,0.01-0.006,0.021-0.009c0.009,0.005,0.017,0.01,0.017,0.021
				c0,0.023-0.041,0.061-0.123,0.114c-0.143,0.089-0.344,0.132-0.607,0.132c-0.246,0-0.448-0.015-0.603-0.045
				c-0.212-0.045-0.49-0.138-0.833-0.281l-0.062-0.024c-0.215,0.049-0.449,0.073-0.702,0.073c-0.464,0-0.7-0.073-0.7-0.227
				c0-0.126,0.182-0.19,0.543-0.19c0.313,0,0.708,0.073,1.193,0.226c0.521-0.167,0.957-0.468,1.311-0.907
				c0.352-0.434,0.527-0.89,0.527-1.372c0-0.248-0.064-0.443-0.195-0.581c-0.133-0.141-0.314-0.21-0.548-0.21
				c-0.482,0-0.952,0.223-1.406,0.671c-0.458,0.449-0.685,0.905-0.685,1.381c0,0.2,0.06,0.358,0.176,0.473
				c0.115,0.116,0.273,0.172,0.478,0.172c0.421,0,0.795-0.2,1.123-0.598c0.276-0.337,0.413-0.661,0.413-0.977
				c0-0.131-0.033-0.239-0.102-0.322c-0.068-0.086-0.154-0.131-0.264-0.131c-0.052,0-0.112,0.018-0.17,0.046
				c-0.063,0.032-0.094,0.063-0.094,0.093c0.003,0.007,0.006,0.009,0.006,0.009c0.01,0,0.025-0.006,0.049-0.021
				c0.015-0.01,0.039-0.016,0.064-0.016c0.08,0,0.12,0.045,0.12,0.131c0,0.052-0.02,0.098-0.054,0.138
				c-0.037,0.037-0.08,0.056-0.131,0.056c-0.104,0-0.154-0.053-0.154-0.167c0-0.084,0.035-0.159,0.104-0.222
				c0.07-0.06,0.154-0.088,0.254-0.088c0.141,0,0.257,0.06,0.348,0.178c0.094,0.12,0.137,0.269,0.137,0.456
				c0,0.376-0.168,0.714-0.508,1.018c-0.338,0.307-0.713,0.459-1.131,0.459c-0.261,0-0.467-0.076-0.618-0.229
				c-0.152-0.154-0.228-0.364-0.228-0.624c0-0.55,0.28-1.027,0.844-1.434c0.475-0.342,0.953-0.511,1.431-0.511
				c0.288,0,0.521,0.095,0.702,0.286C71.54,28.451,71.631,28.703,71.631,29.014z M69.161,31.19c-0.493-0.157-0.826-0.236-1-0.236
				c-0.193,0-0.287,0.041-0.287,0.115c0,0.121,0.221,0.18,0.662,0.18C68.792,31.249,69.001,31.231,69.161,31.19z"/>
			<path fill="#231815" d="M72.703,28.77c-0.684,1.139-1.083,1.808-1.194,2.006c-0.115,0.199-0.172,0.333-0.172,0.397
				c0,0.074,0.033,0.11,0.094,0.11c0.137,0,0.387-0.258,0.75-0.778c0.01-0.017,0.019-0.024,0.032-0.024
				c0.005,0.002,0.009,0.006,0.009,0.015c0,0.01-0.009,0.023-0.025,0.041l-0.104,0.144c-0.309,0.425-0.535,0.64-0.681,0.64
				c-0.071,0-0.128-0.028-0.172-0.079c-0.046-0.053-0.067-0.124-0.067-0.203c0-0.09,0.019-0.175,0.061-0.258
				c0.043-0.086,0.184-0.327,0.422-0.729c0.296-0.488,0.541-0.913,0.742-1.272c0.051,0.015,0.095,0.019,0.133,0.019
				C72.591,28.799,72.652,28.789,72.703,28.77z"/>
			<path fill="#231815" d="M73.675,30.496c0,0.026-0.047,0.091-0.146,0.184c-0.142,0.141-0.276,0.215-0.396,0.215
				c-0.051,0-0.098-0.012-0.133-0.031c-0.219,0.306-0.421,0.457-0.611,0.457c-0.098,0-0.181-0.041-0.25-0.12
				c-0.07-0.083-0.105-0.178-0.105-0.294c0-0.249,0.166-0.489,0.496-0.725c0.232-0.163,0.422-0.244,0.572-0.244
				c0.141,0,0.211,0.074,0.211,0.226c0,0.188-0.1,0.412-0.293,0.674c0.029,0.021,0.068,0.031,0.107,0.031
				c0.072,0,0.16-0.035,0.256-0.103c0.102-0.069,0.18-0.149,0.242-0.243c0.018-0.026,0.033-0.037,0.039-0.037
				C73.665,30.485,73.675,30.489,73.675,30.496z M73.278,30.17c0-0.135-0.057-0.199-0.179-0.199c-0.149,0-0.33,0.144-0.544,0.425
				c-0.213,0.284-0.32,0.518-0.32,0.71c0,0.114,0.054,0.171,0.161,0.171c0.175,0,0.37-0.146,0.579-0.435
				c-0.049-0.048-0.07-0.105-0.07-0.159c0-0.083,0.031-0.163,0.096-0.244c0.06-0.086,0.123-0.129,0.185-0.129
				c0.024,0,0.045,0.015,0.054,0.051C73.265,30.302,73.278,30.24,73.278,30.17z"/>
			<path fill="#231815" d="M74.892,30.496c0,0.021-0.112,0.157-0.344,0.41c-0.252,0.275-0.467,0.414-0.645,0.414
				c-0.113,0-0.213-0.044-0.293-0.13c-0.081-0.088-0.121-0.191-0.121-0.313c0-0.139,0.055-0.278,0.166-0.426
				c0.109-0.147,0.26-0.275,0.449-0.379c0.156-0.091,0.285-0.136,0.385-0.136c0.121,0,0.183,0.069,0.183,0.215
				c0,0.105-0.04,0.222-0.117,0.329c-0.073,0.115-0.151,0.17-0.226,0.17c-0.073,0-0.111-0.04-0.111-0.11
				c0-0.085,0.077-0.165,0.229-0.237c0.114-0.058,0.172-0.132,0.172-0.223c0-0.072-0.039-0.11-0.119-0.11
				c-0.133,0-0.301,0.136-0.498,0.405c-0.197,0.27-0.296,0.498-0.296,0.679c0,0.155,0.072,0.23,0.218,0.23
				c0.225,0,0.528-0.255,0.915-0.762c0.022-0.027,0.036-0.041,0.046-0.041C74.89,30.483,74.892,30.487,74.892,30.496z"/>
			<path fill="#231815" d="M76.178,28.77c-0.013,0.023-0.034,0.057-0.059,0.102c-0.042,0.068-0.108,0.17-0.19,0.304
				c-0.043,0.071-0.104,0.175-0.189,0.317l-0.421,0.677c-0.138,0.226-0.259,0.43-0.354,0.618c-0.109,0.203-0.199,0.359-0.266,0.475
				l-0.034,0.049c-0.04-0.011-0.085-0.016-0.126-0.016c-0.035,0-0.088,0.005-0.159,0.016c0.038-0.067,0.081-0.137,0.126-0.215
				L74.79,30.6c0.04-0.071,0.102-0.182,0.188-0.329l0.896-1.5c0.067,0.014,0.116,0.02,0.15,0.02
				C76.056,28.79,76.103,28.784,76.178,28.77z M76.392,30.496c0,0-0.01,0.021-0.025,0.041l-0.102,0.144
				c-0.313,0.425-0.545,0.64-0.705,0.64c-0.066,0-0.13-0.024-0.185-0.072c-0.057-0.047-0.083-0.103-0.083-0.161
				c0-0.054,0.045-0.172,0.135-0.353l0.003-0.009c0.029-0.061,0.045-0.107,0.045-0.137c0-0.035-0.022-0.066-0.077-0.1
				c-0.061,0.028-0.11,0.039-0.151,0.039c-0.056,0-0.083-0.016-0.083-0.049c0-0.026,0.027-0.041,0.078-0.041
				c0.053,0,0.1,0.008,0.142,0.026c0.081-0.037,0.212-0.157,0.392-0.362c0.097-0.109,0.194-0.165,0.297-0.165
				c0.123,0,0.186,0.058,0.186,0.174c0,0.075-0.031,0.155-0.092,0.233c-0.064,0.077-0.125,0.112-0.187,0.112
				c-0.069,0-0.104-0.028-0.104-0.089c0-0.06,0.055-0.124,0.154-0.188c0.043-0.024,0.064-0.064,0.064-0.115
				c0-0.037-0.024-0.059-0.076-0.059c-0.072,0-0.156,0.06-0.263,0.182c-0.136,0.154-0.245,0.247-0.329,0.283
				c0.164,0.082,0.249,0.172,0.249,0.275c0,0.059-0.036,0.166-0.114,0.333c-0.034,0.067-0.051,0.117-0.051,0.142
				c0,0.045,0.028,0.065,0.08,0.065c0.156,0,0.405-0.258,0.75-0.778c0.011-0.017,0.024-0.024,0.029-0.024
				C76.384,30.481,76.392,30.485,76.392,30.496z"/>
			<path fill="#231815" d="M82.604,28.242c-1.128,1.552-1.694,2.552-1.694,3.002c0,0.11,0.034,0.204,0.11,0.272
				c0.07,0.071,0.16,0.106,0.275,0.106c0.192,0,0.381-0.104,0.564-0.312c0.016-0.018,0.027-0.024,0.035-0.024
				c0,0,0.014,0.006,0.014,0.021c0,0.017-0.027,0.05-0.083,0.1c-0.192,0.172-0.37,0.26-0.534,0.26c-0.156,0-0.285-0.061-0.385-0.183
				c-0.104-0.119-0.154-0.271-0.154-0.451c0-0.314,0.16-0.726,0.481-1.233c-0.017,0.025-0.042,0.059-0.075,0.105l-0.118,0.158
				c-0.295,0.412-0.577,0.736-0.849,0.967c-0.271,0.235-0.498,0.351-0.674,0.351c-0.119,0-0.214-0.044-0.285-0.127
				c-0.072-0.084-0.107-0.198-0.107-0.34c0-0.146,0.041-0.295,0.119-0.44c0.078-0.146,0.255-0.399,0.528-0.761
				c0.294-0.376,0.478-0.638,0.556-0.788c0.082-0.146,0.119-0.304,0.119-0.469c0-0.155-0.057-0.278-0.172-0.374
				c-0.115-0.09-0.273-0.137-0.471-0.137c-0.501,0-0.984,0.228-1.447,0.681c-0.459,0.455-0.693,0.926-0.693,1.415
				c0,0.184,0.053,0.332,0.156,0.439c0.104,0.117,0.242,0.172,0.416,0.172c0.326,0,0.639-0.187,0.94-0.555
				c0.312-0.387,0.47-0.741,0.47-1.06c0-0.268-0.113-0.403-0.344-0.403c-0.059,0-0.113,0.014-0.161,0.037
				c-0.054,0.028-0.079,0.057-0.079,0.086c0,0.014,0.008,0.021,0.025,0.021c0.01-0.003,0.021-0.007,0.043-0.017
				c0.008-0.004,0.02-0.004,0.032-0.004c0.087,0,0.13,0.042,0.13,0.121c0,0.055-0.021,0.1-0.061,0.138
				c-0.039,0.041-0.086,0.062-0.135,0.062c-0.104,0-0.154-0.055-0.154-0.162c0-0.092,0.036-0.168,0.109-0.23
				c0.072-0.062,0.158-0.096,0.26-0.096c0.114,0,0.208,0.045,0.275,0.122c0.07,0.079,0.103,0.189,0.103,0.329
				c0,0.315-0.153,0.672-0.462,1.061c-0.311,0.395-0.643,0.591-0.992,0.591c-0.207,0-0.371-0.07-0.498-0.212
				c-0.124-0.138-0.187-0.322-0.187-0.555c0-0.534,0.282-1.021,0.846-1.461c0.216-0.17,0.454-0.308,0.706-0.408
				c0.258-0.102,0.484-0.154,0.691-0.154c0.247,0,0.44,0.066,0.578,0.2c0.136,0.13,0.205,0.317,0.205,0.554
				c0,0.201-0.051,0.395-0.15,0.574c-0.1,0.182-0.348,0.533-0.746,1.059c-0.174,0.229-0.292,0.392-0.344,0.492
				c-0.054,0.098-0.082,0.19-0.082,0.276c0,0.081,0.025,0.148,0.074,0.198c0.049,0.057,0.113,0.079,0.19,0.079
				c0.242,0,0.583-0.243,1.016-0.734c0.435-0.493,0.993-1.273,1.687-2.342c0.088,0.006,0.136,0.009,0.146,0.009
				C82.431,28.267,82.51,28.259,82.604,28.242z"/>
			<path fill="#231815" d="M82.952,30.326c0,0.268-0.166,0.507-0.496,0.726c-0.27,0.18-0.48,0.268-0.63,0.268
				c-0.106,0-0.159-0.05-0.159-0.148c0-0.029,0.011-0.069,0.023-0.12l-0.928,1.569c-0.06-0.012-0.105-0.021-0.143-0.021
				c-0.054,0-0.107,0.013-0.158,0.031l2.006-3.305c0.039,0.017,0.082,0.023,0.125,0.023c0.044,0,0.098-0.007,0.16-0.023
				l-0.722,1.169c0.175-0.229,0.301-0.38,0.378-0.453c0.08-0.069,0.158-0.106,0.238-0.106c0.086,0,0.158,0.036,0.217,0.109
				C82.921,30.124,82.952,30.218,82.952,30.326z M82.77,30.132c0-0.108-0.047-0.161-0.143-0.161c-0.121,0-0.319,0.194-0.602,0.575
				c-0.213,0.296-0.322,0.5-0.322,0.612c0,0.086,0.036,0.126,0.116,0.126c0.148,0,0.344-0.148,0.585-0.44
				C82.649,30.554,82.77,30.312,82.77,30.132z"/>
			<path fill="#231815" d="M88.644,28.032c0,0.025-0.067,0.069-0.203,0.129c-0.135,0.063-0.289,0.115-0.461,0.16
				c-0.406,0.291-0.809,0.809-1.203,1.554l-0.041,0.073c0.019,0.004,0.044,0.007,0.066,0.007c0.199,0,0.385-0.063,0.553-0.185
				c0.17-0.122,0.27-0.267,0.304-0.443c0.007-0.023,0.018-0.035,0.029-0.035c0.009,0,0.015,0.006,0.015,0.016
				c0,0.1-0.057,0.215-0.162,0.341c-0.191,0.233-0.439,0.35-0.748,0.35c-0.027,0-0.057-0.003-0.084-0.005l-0.067,0.134
				c-0.12,0.227-0.223,0.395-0.317,0.507c-0.082,0.103-0.199,0.208-0.346,0.311c-0.408,0.29-0.828,0.435-1.256,0.435
				c-0.24,0-0.436-0.053-0.592-0.15c-0.155-0.103-0.233-0.23-0.233-0.388c0-0.086,0.024-0.157,0.071-0.217
				c0.051-0.058,0.108-0.088,0.178-0.088c0.107,0,0.158,0.054,0.158,0.165c0,0.054-0.016,0.1-0.05,0.135
				c-0.034,0.037-0.075,0.058-0.127,0.058c-0.075,0-0.114-0.036-0.114-0.108v-0.052c0-0.015-0.004-0.024-0.015-0.024
				c-0.024,0-0.043,0.043-0.043,0.126c0,0.14,0.069,0.255,0.205,0.35c0.139,0.094,0.309,0.14,0.509,0.14
				c0.49,0,0.93-0.242,1.319-0.728c0.116-0.145,0.271-0.367,0.467-0.668c-0.279-0.121-0.422-0.32-0.422-0.59
				c0-0.325,0.187-0.57,0.553-0.727c0.188-0.083,0.479-0.157,0.88-0.225l0.271-0.047l0.229-0.047
				c0.088-0.063,0.203-0.127,0.343-0.192c0.142-0.065,0.239-0.095,0.294-0.095C88.628,28.007,88.644,28.015,88.644,28.032z
				 M87.905,28.341c-0.035,0.009-0.092,0.022-0.164,0.039c-0.06,0.018-0.149,0.043-0.268,0.066
				c-0.397,0.093-0.713,0.232-0.951,0.419c-0.238,0.183-0.357,0.381-0.357,0.593c0,0.207,0.103,0.352,0.307,0.437
				C86.903,29.204,87.382,28.687,87.905,28.341z"/>
			<path fill="#231815" d="M89.153,30.504c0,0.037-0.117,0.192-0.352,0.477c-0.192,0.231-0.344,0.344-0.455,0.344
				c-0.07,0-0.131-0.024-0.183-0.084c-0.05-0.058-0.074-0.127-0.074-0.212c0-0.072,0.017-0.144,0.047-0.206
				c0.027-0.062,0.108-0.188,0.233-0.372c0.134-0.2,0.199-0.324,0.199-0.38c0-0.066-0.035-0.101-0.105-0.101
				c-0.236,0-0.604,0.446-1.101,1.332c-0.081-0.007-0.129-0.012-0.146-0.012c-0.057,0-0.111,0.005-0.16,0.012l0.385-0.608
				c0.219-0.344,0.327-0.563,0.327-0.651c0-0.048-0.02-0.072-0.063-0.072c-0.08,0-0.245,0.178-0.49,0.524
				c-0.013,0.022-0.023,0.033-0.033,0.033c0,0-0.014-0.004-0.016-0.015c0,0,0.006-0.016,0.01-0.019l0.049-0.062
				c0.246-0.331,0.416-0.496,0.5-0.496c0.059,0,0.103,0.023,0.141,0.077c0.04,0.048,0.061,0.109,0.061,0.177
				c0,0.107-0.063,0.253-0.185,0.438c0.193-0.267,0.341-0.449,0.444-0.547c0.104-0.098,0.199-0.146,0.286-0.146
				c0.072,0,0.132,0.028,0.181,0.086c0.047,0.061,0.074,0.136,0.074,0.22c0,0.111-0.074,0.279-0.224,0.504
				c-0.155,0.234-0.229,0.379-0.229,0.443c0,0.068,0.031,0.103,0.1,0.103c0.145,0,0.391-0.26,0.738-0.775
				c0.01-0.021,0.021-0.028,0.028-0.028C89.149,30.489,89.153,30.495,89.153,30.504z"/>
			<path fill="#231815" d="M90.377,30.496c0,0.021-0.114,0.157-0.345,0.41c-0.251,0.275-0.467,0.414-0.643,0.414
				c-0.114,0-0.213-0.044-0.295-0.13c-0.082-0.088-0.121-0.191-0.121-0.313c0-0.139,0.055-0.278,0.165-0.426
				c0.112-0.147,0.263-0.275,0.448-0.379c0.158-0.091,0.285-0.136,0.387-0.136c0.121,0,0.181,0.069,0.181,0.215
				c0,0.105-0.038,0.222-0.111,0.329c-0.078,0.115-0.153,0.17-0.23,0.17c-0.074,0-0.111-0.04-0.111-0.11
				c0-0.085,0.075-0.165,0.226-0.237c0.118-0.058,0.175-0.132,0.175-0.223c0-0.072-0.041-0.11-0.119-0.11
				c-0.137,0-0.303,0.136-0.498,0.405c-0.197,0.27-0.295,0.498-0.295,0.679c0,0.155,0.07,0.23,0.217,0.23
				c0.225,0,0.529-0.255,0.916-0.762c0.02-0.027,0.033-0.041,0.045-0.041C90.368,30.481,90.377,30.487,90.377,30.496z"/>
			<path fill="#231815" d="M90.767,30.985c0,0.071-0.031,0.141-0.099,0.208c-0.066,0.065-0.13,0.1-0.2,0.1
				c-0.072,0-0.109-0.038-0.109-0.109c0-0.066,0.037-0.134,0.106-0.198c0.073-0.068,0.14-0.101,0.214-0.101
				C90.737,30.885,90.767,30.917,90.767,30.985z"/>
		</g>
		<g>
			<g>
				<path fill="#231815" d="M29.506,24.234c-0.062,0.297-0.181,0.527-0.358,0.688c-0.179,0.159-0.376,0.239-0.591,0.239
					c-0.258,0-0.48-0.107-0.672-0.322c-0.19-0.215-0.287-0.503-0.287-0.875c0-0.358,0.105-0.644,0.318-0.867
					c0.211-0.221,0.467-0.333,0.76-0.333c0.224,0,0.406,0.063,0.55,0.178c0.142,0.118,0.215,0.235,0.215,0.364
					c0,0.064-0.021,0.115-0.062,0.155c-0.039,0.038-0.096,0.056-0.169,0.056c-0.097,0-0.169-0.028-0.22-0.093
					c-0.027-0.037-0.047-0.101-0.055-0.199c-0.008-0.097-0.043-0.169-0.101-0.22c-0.058-0.052-0.138-0.075-0.237-0.075
					c-0.166,0-0.3,0.06-0.4,0.183c-0.133,0.162-0.199,0.377-0.199,0.638c0,0.27,0.066,0.509,0.197,0.716
					c0.135,0.206,0.313,0.313,0.539,0.313c0.16,0,0.307-0.055,0.434-0.168c0.092-0.074,0.18-0.214,0.265-0.41L29.506,24.234z"/>
				<path fill="#231815" d="M31.212,24.769c-0.232,0.178-0.379,0.282-0.438,0.31c-0.09,0.039-0.183,0.061-0.283,0.061
					c-0.156,0-0.285-0.051-0.387-0.158c-0.1-0.109-0.152-0.247-0.152-0.422c0-0.11,0.025-0.206,0.074-0.289
					c0.068-0.111,0.186-0.218,0.354-0.316c0.166-0.098,0.443-0.219,0.832-0.359v-0.088c0-0.226-0.035-0.382-0.107-0.464
					c-0.072-0.088-0.176-0.129-0.312-0.129c-0.104,0-0.186,0.029-0.246,0.084c-0.062,0.058-0.095,0.122-0.095,0.192l0.005,0.146
					c0,0.072-0.018,0.135-0.058,0.174c-0.038,0.04-0.09,0.062-0.153,0.062c-0.06,0-0.111-0.021-0.148-0.062
					c-0.037-0.044-0.059-0.104-0.059-0.178c0-0.142,0.074-0.27,0.218-0.389c0.145-0.117,0.349-0.18,0.612-0.18
					c0.199,0,0.365,0.034,0.492,0.101c0.098,0.052,0.168,0.133,0.213,0.239c0.033,0.07,0.047,0.216,0.047,0.436v0.768
					c0,0.216,0.004,0.348,0.013,0.396c0.007,0.05,0.022,0.083,0.04,0.1c0.017,0.015,0.041,0.024,0.064,0.024
					c0.027,0,0.049-0.006,0.07-0.019c0.033-0.018,0.1-0.08,0.199-0.179v0.14c-0.184,0.245-0.359,0.369-0.529,0.369
					c-0.079,0-0.142-0.027-0.19-0.084C31.238,24.999,31.214,24.901,31.212,24.769z M31.212,24.607v-0.864
					c-0.248,0.1-0.408,0.172-0.481,0.211c-0.129,0.073-0.224,0.149-0.279,0.228c-0.057,0.077-0.083,0.167-0.083,0.263
					c0,0.115,0.035,0.213,0.105,0.291c0.072,0.078,0.152,0.119,0.244,0.119C30.843,24.854,31.009,24.774,31.212,24.607z"/>
				<path fill="#231815" d="M33.161,23.008v1.487c0,0.211,0.021,0.344,0.07,0.4c0.059,0.072,0.141,0.111,0.243,0.111h0.204v0.087
					h-1.352v-0.087h0.104c0.064,0,0.125-0.017,0.18-0.052c0.055-0.033,0.092-0.076,0.113-0.135c0.02-0.054,0.028-0.163,0.028-0.325
					v-1.487h-0.437v-0.175h0.437v-0.15c0-0.226,0.038-0.417,0.108-0.574c0.074-0.155,0.185-0.281,0.334-0.379
					c0.148-0.096,0.316-0.146,0.504-0.146c0.172,0,0.332,0.061,0.477,0.171c0.094,0.075,0.141,0.156,0.141,0.249
					c0,0.048-0.02,0.095-0.062,0.141c-0.046,0.045-0.091,0.066-0.14,0.066c-0.037,0-0.076-0.014-0.121-0.043
					c-0.041-0.027-0.092-0.083-0.153-0.172c-0.062-0.093-0.118-0.154-0.169-0.185c-0.049-0.027-0.107-0.045-0.168-0.045
					c-0.076,0-0.141,0.02-0.194,0.059c-0.052,0.041-0.091,0.103-0.112,0.188c-0.023,0.084-0.035,0.304-0.035,0.655v0.166h0.582
					v0.175H33.161z"/>
				<path fill="#231815" d="M34.442,23.685c-0.001,0.334,0.081,0.597,0.244,0.788c0.166,0.191,0.359,0.287,0.582,0.287
					c0.147,0,0.275-0.043,0.385-0.123c0.109-0.08,0.203-0.222,0.275-0.418l0.078,0.049c-0.034,0.225-0.137,0.429-0.301,0.615
					c-0.168,0.185-0.377,0.277-0.627,0.277c-0.272,0-0.503-0.104-0.698-0.317c-0.191-0.211-0.288-0.492-0.288-0.851
					c0-0.392,0.1-0.69,0.297-0.907c0.197-0.216,0.447-0.325,0.748-0.325c0.252,0,0.461,0.086,0.623,0.252
					c0.164,0.164,0.246,0.387,0.246,0.673H34.442z M34.442,23.54h1.049c-0.008-0.146-0.027-0.248-0.055-0.307
					c-0.039-0.092-0.101-0.164-0.182-0.217c-0.082-0.055-0.167-0.08-0.256-0.08c-0.139,0-0.26,0.053-0.367,0.16
					C34.524,23.202,34.462,23.35,34.442,23.54z"/>
				<path fill="#231815" d="M36.522,25.935v-0.108c0.17-0.058,0.301-0.145,0.393-0.261c0.094-0.118,0.14-0.243,0.14-0.372
					c0-0.033-0.007-0.062-0.021-0.084c-0.013-0.012-0.024-0.019-0.035-0.019c-0.019,0-0.059,0.014-0.117,0.048
					c-0.033,0.014-0.063,0.021-0.096,0.021c-0.08,0-0.144-0.023-0.192-0.069c-0.048-0.05-0.071-0.112-0.071-0.198
					c0-0.083,0.031-0.149,0.092-0.209c0.063-0.056,0.137-0.086,0.225-0.086c0.108,0,0.207,0.049,0.29,0.145
					c0.085,0.093,0.129,0.219,0.129,0.375c0,0.17-0.06,0.329-0.178,0.476C36.964,25.736,36.778,25.854,36.522,25.935z"/>
				<path fill="#231815" d="M39.372,24.839c-0.111,0.114-0.219,0.197-0.324,0.25c-0.106,0.049-0.22,0.072-0.34,0.072
					c-0.246,0-0.463-0.101-0.647-0.309c-0.185-0.207-0.277-0.473-0.277-0.797c0-0.325,0.102-0.623,0.305-0.89
					c0.205-0.271,0.468-0.405,0.789-0.405c0.2,0,0.365,0.066,0.494,0.191v-0.419c0-0.256-0.006-0.416-0.018-0.473
					c-0.013-0.061-0.033-0.1-0.059-0.123c-0.027-0.021-0.059-0.034-0.1-0.034c-0.043,0-0.1,0.015-0.168,0.042l-0.034-0.086
					l0.675-0.277h0.111v2.616c0,0.264,0.006,0.427,0.018,0.483c0.013,0.059,0.033,0.102,0.058,0.124
					c0.028,0.021,0.061,0.034,0.096,0.034c0.045,0,0.104-0.014,0.178-0.04l0.028,0.085l-0.673,0.277h-0.113V24.839z M39.372,24.665
					v-1.162c-0.01-0.116-0.039-0.215-0.088-0.309c-0.05-0.093-0.116-0.159-0.197-0.209c-0.082-0.046-0.16-0.07-0.238-0.07
					c-0.144,0-0.275,0.064-0.387,0.196c-0.151,0.172-0.226,0.421-0.226,0.752c0,0.332,0.073,0.587,0.217,0.765
					c0.146,0.177,0.309,0.262,0.484,0.262C39.088,24.889,39.233,24.815,39.372,24.665z"/>
				<path fill="#231815" d="M41.185,22.764v1.817c0,0.142,0.01,0.236,0.031,0.285c0.021,0.044,0.051,0.08,0.092,0.104
					c0.039,0.025,0.113,0.037,0.221,0.037v0.087h-1.098v-0.087c0.109,0,0.184-0.012,0.221-0.034
					c0.039-0.021,0.066-0.058,0.091-0.107c0.021-0.051,0.034-0.143,0.034-0.285v-0.869c0-0.246-0.01-0.406-0.024-0.479
					c-0.011-0.057-0.029-0.089-0.055-0.11c-0.024-0.021-0.059-0.032-0.102-0.032c-0.047,0-0.102,0.014-0.166,0.041l-0.037-0.089
					l0.683-0.279H41.185z M40.979,21.581c0.07,0,0.129,0.025,0.178,0.075c0.049,0.046,0.072,0.106,0.072,0.175
					c0,0.067-0.023,0.129-0.072,0.179c-0.049,0.05-0.107,0.074-0.178,0.074c-0.068,0-0.127-0.024-0.178-0.074
					c-0.049-0.05-0.074-0.111-0.074-0.179c0-0.068,0.025-0.129,0.073-0.175C40.851,21.606,40.909,21.581,40.979,21.581z"/>
				<path fill="#231815" d="M42.569,23.244c0.268-0.319,0.52-0.48,0.76-0.48c0.123,0,0.228,0.032,0.318,0.093
					c0.089,0.063,0.16,0.165,0.213,0.305c0.035,0.102,0.055,0.25,0.055,0.453v0.967c0,0.144,0.01,0.242,0.033,0.294
					c0.02,0.038,0.049,0.071,0.087,0.095c0.042,0.025,0.114,0.037,0.224,0.037v0.087h-1.118v-0.087h0.046
					c0.107,0,0.182-0.017,0.223-0.052c0.041-0.032,0.07-0.076,0.086-0.142c0.009-0.023,0.012-0.102,0.012-0.232v-0.924
					c0-0.206-0.027-0.356-0.079-0.451c-0.056-0.093-0.146-0.137-0.272-0.137c-0.197,0-0.391,0.106-0.586,0.317v1.194
					c0,0.153,0.011,0.25,0.028,0.285c0.024,0.047,0.054,0.084,0.095,0.106c0.041,0.023,0.123,0.035,0.246,0.035v0.087h-1.117v-0.087
					h0.049c0.115,0,0.191-0.03,0.232-0.09c0.042-0.059,0.062-0.171,0.062-0.336v-0.84c0-0.269-0.006-0.435-0.02-0.494
					c-0.011-0.063-0.031-0.101-0.055-0.122c-0.027-0.023-0.061-0.034-0.104-0.034c-0.047,0-0.102,0.014-0.164,0.041l-0.039-0.089
					l0.682-0.279h0.105V23.244z"/>
				<path fill="#231815" d="M45.202,23.244c0.264-0.319,0.517-0.48,0.758-0.48c0.123,0,0.228,0.032,0.318,0.093
					c0.088,0.063,0.158,0.165,0.211,0.305c0.037,0.102,0.057,0.25,0.057,0.453v0.967c0,0.144,0.01,0.242,0.033,0.294
					c0.02,0.038,0.047,0.071,0.088,0.095c0.041,0.025,0.113,0.037,0.223,0.037v0.087H45.77v-0.087h0.048
					c0.104,0,0.179-0.017,0.221-0.052c0.042-0.032,0.071-0.076,0.087-0.142c0.006-0.023,0.011-0.102,0.011-0.232v-0.924
					c0-0.206-0.026-0.356-0.08-0.451c-0.054-0.093-0.145-0.137-0.271-0.137c-0.197,0-0.392,0.106-0.584,0.317v1.194
					c0,0.153,0.009,0.25,0.025,0.285c0.024,0.047,0.056,0.084,0.094,0.106c0.043,0.023,0.123,0.035,0.248,0.035v0.087H44.45v-0.087
					h0.051c0.113,0,0.191-0.03,0.23-0.09c0.043-0.059,0.063-0.171,0.063-0.336v-0.84c0-0.269-0.008-0.435-0.019-0.494
					c-0.013-0.063-0.032-0.101-0.058-0.122c-0.025-0.023-0.059-0.034-0.102-0.034c-0.047,0-0.102,0.014-0.166,0.041l-0.037-0.089
					l0.682-0.279h0.107V23.244z"/>
				<path fill="#231815" d="M47.952,22.764v1.817c0,0.142,0.01,0.236,0.031,0.285c0.021,0.044,0.051,0.08,0.091,0.104
					c0.04,0.025,0.114,0.037,0.222,0.037v0.087h-1.1v-0.087c0.111,0,0.185-0.012,0.223-0.034c0.037-0.021,0.067-0.058,0.091-0.107
					c0.021-0.051,0.032-0.143,0.032-0.285v-0.869c0-0.246-0.008-0.406-0.021-0.479c-0.012-0.057-0.031-0.089-0.056-0.11
					c-0.025-0.021-0.059-0.032-0.102-0.032c-0.046,0-0.104,0.014-0.168,0.041l-0.034-0.089l0.683-0.279H47.952z M47.747,21.581
					c0.069,0,0.129,0.025,0.176,0.075c0.05,0.046,0.074,0.106,0.074,0.175c0,0.067-0.024,0.129-0.074,0.179
					c-0.047,0.05-0.107,0.074-0.176,0.074c-0.068,0-0.128-0.024-0.178-0.074c-0.048-0.05-0.074-0.111-0.074-0.179
					c0-0.068,0.026-0.129,0.074-0.175C47.617,21.606,47.677,21.581,47.747,21.581z"/>
				<path fill="#231815" d="M49.337,23.244c0.266-0.319,0.52-0.48,0.76-0.48c0.123,0,0.229,0.032,0.318,0.093
					c0.088,0.063,0.16,0.165,0.213,0.305c0.035,0.102,0.053,0.25,0.053,0.453v0.967c0,0.144,0.012,0.242,0.035,0.294
					c0.019,0.038,0.047,0.071,0.086,0.095c0.043,0.025,0.117,0.037,0.225,0.037v0.087h-1.118v-0.087h0.047
					c0.105,0,0.179-0.017,0.222-0.052c0.041-0.032,0.07-0.076,0.086-0.142c0.008-0.023,0.01-0.102,0.01-0.232v-0.924
					c0-0.206-0.025-0.356-0.079-0.451c-0.054-0.093-0.144-0.137-0.269-0.137c-0.197,0-0.393,0.106-0.588,0.317v1.194
					c0,0.153,0.012,0.25,0.027,0.285c0.025,0.047,0.055,0.084,0.095,0.106c0.042,0.023,0.124,0.035,0.247,0.035v0.087h-1.119v-0.087
					h0.049c0.116,0,0.193-0.03,0.233-0.09c0.042-0.059,0.06-0.171,0.06-0.336v-0.84c0-0.269-0.006-0.435-0.018-0.494
					c-0.012-0.063-0.031-0.101-0.055-0.122c-0.027-0.023-0.061-0.034-0.104-0.034c-0.048,0-0.104,0.014-0.166,0.041l-0.038-0.089
					l0.683-0.279h0.105V23.244z"/>
				<path fill="#231815" d="M51.914,24.269c-0.138-0.066-0.245-0.16-0.319-0.282c-0.074-0.122-0.111-0.256-0.111-0.4
					c0-0.225,0.084-0.418,0.254-0.581c0.169-0.16,0.387-0.241,0.648-0.241c0.215,0,0.402,0.054,0.561,0.16h0.479
					c0.069,0,0.112,0.001,0.122,0.006c0.013,0.003,0.021,0.009,0.025,0.02c0.011,0.012,0.016,0.039,0.016,0.079
					c0,0.044-0.004,0.071-0.013,0.088c-0.006,0.008-0.014,0.017-0.027,0.019c-0.011,0.005-0.054,0.01-0.123,0.01H53.13
					c0.093,0.116,0.14,0.267,0.14,0.451c0,0.212-0.081,0.393-0.241,0.544c-0.162,0.146-0.379,0.225-0.65,0.225
					c-0.111,0-0.227-0.016-0.344-0.051c-0.072,0.061-0.121,0.119-0.146,0.164c-0.025,0.046-0.038,0.089-0.038,0.119
					c0,0.029,0.014,0.056,0.04,0.082c0.029,0.026,0.08,0.047,0.16,0.058c0.045,0.007,0.16,0.013,0.346,0.017
					c0.338,0.012,0.559,0.022,0.658,0.035c0.154,0.02,0.275,0.079,0.367,0.17c0.092,0.094,0.139,0.205,0.139,0.342
					c0,0.186-0.088,0.358-0.264,0.522c-0.256,0.242-0.591,0.36-1.004,0.36c-0.317,0-0.586-0.071-0.805-0.215
					c-0.124-0.082-0.188-0.168-0.188-0.258c0-0.039,0.01-0.075,0.029-0.117c0.027-0.063,0.086-0.146,0.172-0.255
					c0.011-0.015,0.096-0.105,0.253-0.265c-0.087-0.053-0.147-0.096-0.183-0.137c-0.035-0.043-0.053-0.086-0.053-0.14
					c0-0.056,0.024-0.127,0.07-0.204C51.636,24.52,51.744,24.409,51.914,24.269z M51.888,25.094
					c-0.076,0.083-0.134,0.161-0.175,0.231c-0.04,0.075-0.058,0.142-0.058,0.201c0,0.082,0.047,0.15,0.143,0.21
					c0.164,0.103,0.401,0.153,0.713,0.153c0.297,0,0.516-0.054,0.656-0.158c0.141-0.104,0.211-0.217,0.211-0.334
					c0-0.086-0.043-0.147-0.125-0.182c-0.086-0.037-0.256-0.06-0.51-0.067C52.372,25.14,52.087,25.121,51.888,25.094z
					 M52.345,22.882c-0.123,0-0.226,0.051-0.307,0.148c-0.083,0.096-0.124,0.245-0.124,0.448c0,0.258,0.056,0.462,0.167,0.603
					c0.086,0.109,0.195,0.162,0.328,0.162c0.123,0,0.227-0.045,0.308-0.139c0.079-0.096,0.122-0.241,0.122-0.443
					c0-0.263-0.057-0.467-0.172-0.612C52.583,22.936,52.475,22.882,52.345,22.882z"/>
				<path fill="#231815" d="M54.052,25.935v-0.108c0.172-0.058,0.301-0.145,0.395-0.261c0.094-0.118,0.141-0.243,0.141-0.372
					c0-0.033-0.008-0.062-0.023-0.084c-0.012-0.012-0.023-0.019-0.034-0.019c-0.019,0-0.058,0.014-0.118,0.048
					c-0.029,0.014-0.063,0.021-0.094,0.021c-0.081,0-0.144-0.023-0.193-0.069c-0.049-0.05-0.072-0.112-0.072-0.198
					c0-0.083,0.031-0.149,0.092-0.209c0.063-0.056,0.139-0.086,0.229-0.086c0.107,0,0.204,0.049,0.29,0.145
					c0.085,0.093,0.126,0.219,0.126,0.375c0,0.17-0.06,0.329-0.176,0.476C54.494,25.736,54.308,25.854,54.052,25.935z"/>
				<path fill="#231815" d="M55.977,23.247c0.165-0.167,0.261-0.26,0.291-0.285c0.074-0.064,0.154-0.107,0.24-0.145
					c0.085-0.037,0.171-0.054,0.253-0.054c0.143,0,0.266,0.042,0.367,0.124c0.102,0.082,0.17,0.201,0.205,0.359
					c0.169-0.199,0.312-0.328,0.43-0.391c0.116-0.06,0.236-0.093,0.36-0.093c0.12,0,0.227,0.032,0.318,0.093
					c0.093,0.063,0.167,0.163,0.224,0.304c0.035,0.097,0.055,0.245,0.055,0.446v0.975c0,0.142,0.008,0.239,0.029,0.294
					c0.018,0.034,0.049,0.065,0.092,0.093c0.045,0.024,0.117,0.039,0.219,0.039v0.087h-1.117v-0.087h0.047
					c0.096,0,0.172-0.019,0.225-0.059c0.04-0.026,0.067-0.069,0.083-0.128c0.008-0.024,0.01-0.107,0.01-0.239v-0.975
					c0-0.183-0.021-0.311-0.066-0.389c-0.063-0.105-0.166-0.155-0.309-0.155c-0.088,0-0.174,0.022-0.263,0.064
					c-0.089,0.042-0.196,0.125-0.319,0.244l-0.006,0.025l0.006,0.107v1.078c0,0.156,0.008,0.252,0.025,0.291
					c0.018,0.035,0.049,0.068,0.098,0.096c0.047,0.024,0.129,0.039,0.244,0.039v0.087h-1.145v-0.087
					c0.127,0,0.213-0.017,0.258-0.047c0.047-0.029,0.08-0.075,0.098-0.134c0.01-0.027,0.014-0.108,0.014-0.245v-0.975
					c0-0.183-0.025-0.314-0.081-0.394c-0.074-0.106-0.175-0.156-0.305-0.156c-0.088,0-0.177,0.021-0.265,0.069
					c-0.135,0.071-0.241,0.155-0.315,0.245v1.211c0,0.15,0.011,0.245,0.032,0.291c0.02,0.043,0.05,0.078,0.09,0.1
					c0.04,0.023,0.123,0.035,0.246,0.035v0.087h-1.119v-0.087c0.103,0,0.177-0.012,0.217-0.035c0.041-0.022,0.072-0.06,0.094-0.106
					c0.022-0.051,0.033-0.143,0.033-0.285v-0.863c0-0.247-0.008-0.412-0.023-0.482c-0.011-0.056-0.028-0.092-0.054-0.113
					c-0.022-0.021-0.059-0.032-0.102-0.032c-0.045,0-0.101,0.014-0.165,0.041l-0.037-0.089l0.682-0.279h0.107V23.247z"/>
				<path fill="#231815" d="M61.325,22.833v1.37c0,0.258,0.004,0.421,0.016,0.478c0.014,0.059,0.035,0.102,0.061,0.124
					c0.027,0.021,0.06,0.034,0.094,0.034c0.053,0,0.109-0.014,0.174-0.04l0.034,0.085l-0.677,0.277h-0.11v-0.479
					c-0.193,0.211-0.343,0.343-0.445,0.399c-0.101,0.054-0.21,0.08-0.323,0.08c-0.125,0-0.236-0.037-0.33-0.107
					c-0.094-0.072-0.156-0.17-0.193-0.283c-0.035-0.116-0.053-0.278-0.053-0.492V23.27c0-0.107-0.014-0.182-0.035-0.223
					c-0.024-0.041-0.057-0.072-0.104-0.097c-0.045-0.019-0.127-0.031-0.246-0.027v-0.091h0.795v1.515
					c0,0.21,0.035,0.347,0.109,0.413c0.072,0.064,0.16,0.098,0.266,0.098c0.07,0,0.151-0.023,0.24-0.066
					c0.089-0.046,0.195-0.128,0.319-0.254v-1.281c0-0.13-0.022-0.215-0.069-0.263c-0.049-0.044-0.145-0.067-0.293-0.07v-0.091
					H61.325z"/>
				<path fill="#231815" d="M63.433,22.764v0.769h-0.081c-0.064-0.241-0.145-0.406-0.241-0.49c-0.098-0.09-0.223-0.133-0.375-0.133
					c-0.115,0-0.208,0.031-0.278,0.09c-0.071,0.064-0.106,0.132-0.106,0.202c0,0.093,0.027,0.173,0.078,0.238
					c0.053,0.069,0.157,0.141,0.313,0.217l0.361,0.172c0.333,0.164,0.5,0.381,0.5,0.645c0,0.207-0.076,0.374-0.232,0.501
					c-0.156,0.124-0.33,0.187-0.523,0.187c-0.137,0-0.295-0.023-0.473-0.072c-0.057-0.016-0.1-0.025-0.135-0.025
					c-0.038,0-0.066,0.022-0.088,0.064h-0.08V24.32h0.08c0.045,0.232,0.135,0.403,0.264,0.521c0.131,0.117,0.276,0.177,0.437,0.177
					c0.113,0,0.207-0.034,0.279-0.101c0.072-0.065,0.106-0.147,0.106-0.245c0-0.108-0.038-0.206-0.119-0.284
					c-0.08-0.076-0.238-0.172-0.479-0.292c-0.24-0.119-0.396-0.227-0.469-0.322c-0.073-0.093-0.111-0.212-0.111-0.354
					c0-0.185,0.064-0.342,0.191-0.468c0.128-0.124,0.293-0.188,0.496-0.188c0.086,0,0.195,0.018,0.323,0.058
					c0.083,0.025,0.14,0.037,0.167,0.037c0.026,0,0.049-0.004,0.063-0.015c0.014-0.013,0.031-0.04,0.052-0.08H63.433z"/>
				<path fill="#231815" d="M64.821,22.764v1.817c0,0.142,0.01,0.236,0.031,0.285c0.02,0.044,0.051,0.08,0.09,0.104
					c0.041,0.025,0.115,0.037,0.223,0.037v0.087h-1.1v-0.087c0.108,0,0.186-0.012,0.221-0.034c0.041-0.021,0.07-0.058,0.094-0.107
					c0.02-0.051,0.031-0.143,0.031-0.285v-0.869c0-0.246-0.009-0.406-0.023-0.479c-0.011-0.057-0.028-0.089-0.053-0.11
					c-0.025-0.021-0.059-0.032-0.104-0.032c-0.044,0-0.101,0.014-0.166,0.041l-0.037-0.089l0.684-0.279H64.821z M64.616,21.581
					c0.068,0,0.127,0.025,0.176,0.075c0.049,0.046,0.074,0.106,0.074,0.175c0,0.067-0.025,0.129-0.074,0.179
					c-0.049,0.05-0.107,0.074-0.176,0.074c-0.068,0-0.128-0.024-0.178-0.074c-0.051-0.05-0.074-0.111-0.074-0.179
					c0-0.068,0.023-0.129,0.072-0.175C64.487,21.606,64.546,21.581,64.616,21.581z"/>
				<path fill="#231815" d="M67.469,24.234c-0.062,0.297-0.181,0.527-0.357,0.688c-0.179,0.159-0.374,0.239-0.591,0.239
					c-0.258,0-0.482-0.107-0.672-0.322c-0.192-0.215-0.287-0.503-0.287-0.875c0-0.358,0.107-0.644,0.318-0.867
					c0.211-0.221,0.465-0.333,0.762-0.333c0.222,0,0.405,0.063,0.547,0.178c0.145,0.118,0.215,0.235,0.215,0.364
					c0,0.064-0.018,0.115-0.061,0.155c-0.039,0.038-0.096,0.056-0.167,0.056c-0.099,0-0.171-0.028-0.221-0.093
					c-0.028-0.037-0.046-0.101-0.056-0.199c-0.008-0.097-0.041-0.169-0.1-0.22c-0.059-0.052-0.139-0.075-0.239-0.075
					c-0.166,0-0.298,0.06-0.399,0.183c-0.132,0.162-0.2,0.377-0.2,0.638c0,0.27,0.065,0.509,0.199,0.716
					c0.134,0.206,0.313,0.313,0.537,0.313c0.161,0,0.308-0.055,0.435-0.168c0.092-0.074,0.18-0.214,0.264-0.41L67.469,24.234z"/>
				<path fill="#231815" d="M68.007,25.935v-0.108c0.17-0.058,0.301-0.145,0.395-0.261c0.094-0.118,0.139-0.243,0.139-0.372
					c0-0.033-0.008-0.062-0.021-0.084c-0.011-0.012-0.023-0.019-0.035-0.019c-0.018,0-0.059,0.014-0.119,0.048
					c-0.029,0.014-0.058,0.021-0.092,0.021c-0.081,0-0.145-0.023-0.193-0.069c-0.049-0.05-0.072-0.112-0.072-0.198
					c0-0.083,0.033-0.149,0.092-0.209c0.063-0.056,0.139-0.086,0.227-0.086c0.109,0,0.205,0.049,0.29,0.145
					c0.087,0.093,0.127,0.219,0.127,0.375c0,0.17-0.058,0.329-0.175,0.476C68.45,25.736,68.261,25.854,68.007,25.935z"/>
				<path fill="#231815" d="M69.88,23.222c0.219-0.305,0.455-0.458,0.709-0.458c0.232,0,0.434,0.099,0.607,0.301
					c0.172,0.198,0.259,0.467,0.259,0.812c0,0.399-0.134,0.725-0.4,0.97c-0.23,0.212-0.485,0.315-0.765,0.315
					c-0.133,0-0.268-0.023-0.402-0.069c-0.136-0.05-0.274-0.119-0.416-0.215v-2.345c0-0.258-0.007-0.416-0.02-0.473
					c-0.012-0.061-0.031-0.1-0.058-0.123c-0.026-0.021-0.059-0.034-0.099-0.034c-0.046,0-0.104,0.015-0.174,0.042l-0.033-0.086
					l0.679-0.277h0.112V23.222z M69.88,23.378v1.357c0.084,0.081,0.17,0.145,0.259,0.184c0.091,0.044,0.182,0.065,0.274,0.065
					c0.15,0,0.291-0.084,0.42-0.249c0.13-0.161,0.194-0.402,0.194-0.719c0-0.289-0.064-0.509-0.194-0.667
					c-0.129-0.157-0.275-0.233-0.439-0.233c-0.089,0-0.177,0.021-0.264,0.066C70.065,23.214,69.979,23.282,69.88,23.378z"/>
				<path fill="#231815" d="M72.995,22.764c0.344,0,0.617,0.129,0.826,0.393c0.176,0.22,0.265,0.475,0.265,0.766
					c0,0.202-0.048,0.406-0.147,0.614c-0.098,0.209-0.23,0.363-0.4,0.471c-0.17,0.104-0.36,0.154-0.569,0.154
					c-0.341,0-0.612-0.136-0.813-0.406c-0.168-0.229-0.252-0.486-0.252-0.771c0-0.208,0.051-0.413,0.154-0.619
					c0.1-0.205,0.236-0.356,0.406-0.453C72.63,22.812,72.809,22.764,72.995,22.764z M72.919,22.925
					c-0.088,0-0.175,0.025-0.261,0.078c-0.093,0.053-0.161,0.144-0.214,0.274c-0.056,0.128-0.082,0.296-0.082,0.499
					c0,0.33,0.064,0.611,0.193,0.853c0.131,0.24,0.306,0.36,0.519,0.36c0.16,0,0.289-0.067,0.393-0.199
					c0.105-0.133,0.158-0.359,0.158-0.679c0-0.402-0.088-0.72-0.262-0.95C73.249,23.005,73.1,22.925,72.919,22.925z"/>
				<path fill="#231815" d="M75.627,22.764c0.342,0,0.616,0.129,0.823,0.393c0.178,0.22,0.265,0.475,0.265,0.766
					c0,0.202-0.048,0.406-0.144,0.614c-0.1,0.209-0.232,0.363-0.404,0.471c-0.168,0.104-0.359,0.154-0.566,0.154
					c-0.342,0-0.612-0.136-0.814-0.406c-0.169-0.229-0.254-0.486-0.254-0.771c0-0.208,0.053-0.413,0.154-0.619
					c0.105-0.205,0.238-0.356,0.406-0.453C75.261,22.812,75.439,22.764,75.627,22.764z M75.55,22.925
					c-0.088,0-0.175,0.025-0.263,0.078c-0.089,0.053-0.159,0.144-0.213,0.274c-0.056,0.128-0.081,0.296-0.081,0.499
					c0,0.33,0.064,0.611,0.195,0.853c0.13,0.24,0.305,0.36,0.518,0.36c0.16,0,0.291-0.067,0.395-0.199
					c0.104-0.133,0.156-0.359,0.156-0.679c0-0.402-0.087-0.72-0.26-0.95C75.882,23.005,75.73,22.925,75.55,22.925z"/>
				<path fill="#231815" d="M77.819,21.581v2.252l0.576-0.527c0.119-0.109,0.192-0.181,0.213-0.211
					c0.012-0.018,0.018-0.039,0.018-0.058c0-0.034-0.012-0.063-0.039-0.087c-0.027-0.023-0.074-0.036-0.135-0.04v-0.077h0.983v0.077
					c-0.133,0.004-0.246,0.023-0.336,0.059c-0.092,0.04-0.189,0.107-0.297,0.202l-0.582,0.54l0.582,0.733
					c0.162,0.202,0.27,0.332,0.326,0.384c0.08,0.077,0.149,0.126,0.209,0.152c0.039,0.017,0.111,0.025,0.213,0.025v0.087h-1.098
					v-0.087c0.061-0.004,0.105-0.012,0.126-0.03c0.024-0.017,0.036-0.043,0.036-0.073c0-0.037-0.036-0.099-0.102-0.184l-0.693-0.886
					v0.751c0,0.147,0.01,0.242,0.031,0.291c0.02,0.043,0.049,0.077,0.086,0.098c0.039,0.022,0.121,0.03,0.248,0.034v0.087h-1.15
					v-0.087c0.114,0,0.202-0.015,0.258-0.043c0.037-0.021,0.062-0.047,0.08-0.085c0.025-0.056,0.037-0.148,0.037-0.284v-2.059
					c0-0.262-0.006-0.422-0.018-0.481c-0.012-0.056-0.029-0.098-0.059-0.12c-0.023-0.021-0.057-0.033-0.104-0.033
					c-0.033,0-0.084,0.014-0.152,0.043l-0.043-0.086l0.674-0.277H77.819z"/>
				<path fill="#231815" d="M81.243,22.764v0.769h-0.081c-0.065-0.241-0.145-0.406-0.239-0.49c-0.1-0.09-0.225-0.133-0.375-0.133
					c-0.116,0-0.209,0.031-0.282,0.09c-0.07,0.064-0.104,0.132-0.104,0.202c0,0.093,0.025,0.173,0.078,0.238
					c0.051,0.069,0.154,0.141,0.313,0.217l0.36,0.172c0.332,0.164,0.501,0.381,0.501,0.645c0,0.207-0.079,0.374-0.233,0.501
					c-0.156,0.124-0.33,0.187-0.524,0.187c-0.139,0-0.297-0.023-0.475-0.072c-0.055-0.016-0.1-0.025-0.133-0.025
					c-0.039,0-0.068,0.022-0.088,0.064h-0.083V24.32h0.083c0.045,0.232,0.133,0.403,0.265,0.521
					c0.128,0.117,0.274,0.177,0.436,0.177c0.112,0,0.206-0.034,0.277-0.101c0.071-0.065,0.105-0.147,0.105-0.245
					c0-0.108-0.038-0.206-0.115-0.284c-0.082-0.076-0.241-0.172-0.479-0.292c-0.24-0.119-0.396-0.227-0.47-0.322
					c-0.073-0.093-0.11-0.212-0.11-0.354c0-0.185,0.063-0.342,0.19-0.468c0.128-0.124,0.292-0.188,0.494-0.188
					c0.091,0,0.198,0.018,0.323,0.058c0.085,0.025,0.143,0.037,0.167,0.037c0.03,0,0.048-0.004,0.063-0.015
					c0.016-0.013,0.035-0.04,0.054-0.08H81.243z"/>
				<path fill="#231815" d="M81.964,25.935v-0.108c0.169-0.058,0.303-0.145,0.395-0.261c0.092-0.118,0.139-0.243,0.139-0.372
					c0-0.033-0.008-0.062-0.021-0.084c-0.012-0.012-0.024-0.019-0.037-0.019c-0.016,0-0.058,0.014-0.117,0.048
					c-0.03,0.014-0.061,0.021-0.094,0.021c-0.08,0-0.144-0.023-0.192-0.069c-0.048-0.05-0.071-0.112-0.071-0.198
					c0-0.083,0.029-0.149,0.093-0.209c0.062-0.056,0.138-0.086,0.226-0.086c0.107,0,0.207,0.049,0.291,0.145
					c0.082,0.093,0.128,0.219,0.128,0.375c0,0.17-0.06,0.329-0.177,0.476C82.405,25.736,82.219,25.854,81.964,25.935z"/>
				<path fill="#231815" d="M83.054,23.056l0.696-0.281h0.092v0.526c0.118-0.199,0.235-0.339,0.354-0.419
					c0.117-0.078,0.242-0.118,0.371-0.118c0.229,0,0.416,0.091,0.566,0.268c0.188,0.218,0.28,0.5,0.28,0.85
					c0,0.39-0.112,0.714-0.336,0.967c-0.186,0.21-0.417,0.313-0.696,0.313c-0.121,0-0.229-0.019-0.316-0.051
					c-0.066-0.023-0.139-0.074-0.224-0.146v0.688c0,0.154,0.011,0.254,0.032,0.297c0.014,0.039,0.049,0.072,0.098,0.101
					c0.047,0.024,0.131,0.037,0.255,0.037v0.09h-1.185v-0.09h0.061c0.09,0.002,0.165-0.017,0.232-0.052
					c0.029-0.022,0.055-0.051,0.072-0.09c0.018-0.041,0.026-0.142,0.026-0.307v-2.139c0-0.148-0.007-0.238-0.022-0.281
					c-0.01-0.041-0.032-0.067-0.061-0.086c-0.029-0.021-0.068-0.033-0.117-0.033c-0.04,0-0.092,0.014-0.152,0.035L83.054,23.056z
					 M83.842,23.448v0.846c0,0.18,0.011,0.301,0.022,0.36c0.023,0.096,0.08,0.179,0.17,0.252c0.091,0.073,0.203,0.107,0.341,0.107
					c0.163,0,0.298-0.064,0.399-0.193c0.134-0.166,0.199-0.402,0.199-0.705c0-0.348-0.074-0.612-0.227-0.802
					c-0.105-0.129-0.229-0.19-0.375-0.19c-0.08,0-0.158,0.019-0.235,0.058C84.077,23.212,83.981,23.3,83.842,23.448z"/>
				<path fill="#231815" d="M86.626,22.764v1.817c0,0.142,0.01,0.236,0.031,0.285c0.021,0.044,0.051,0.08,0.092,0.104
					c0.04,0.025,0.115,0.037,0.221,0.037v0.087h-1.098v-0.087c0.107,0,0.183-0.012,0.221-0.034c0.039-0.021,0.067-0.058,0.09-0.107
					c0.023-0.051,0.034-0.143,0.034-0.285v-0.869c0-0.246-0.009-0.406-0.022-0.479c-0.012-0.057-0.029-0.089-0.054-0.11
					c-0.024-0.021-0.058-0.032-0.103-0.032c-0.045,0-0.102,0.014-0.166,0.041l-0.037-0.089l0.683-0.279H86.626z M86.423,21.581
					c0.068,0,0.129,0.025,0.174,0.075c0.05,0.046,0.074,0.106,0.074,0.175c0,0.067-0.024,0.129-0.074,0.179
					c-0.045,0.05-0.105,0.074-0.174,0.074c-0.069,0-0.128-0.024-0.18-0.074c-0.049-0.05-0.074-0.111-0.074-0.179
					c0-0.068,0.025-0.129,0.074-0.175C86.291,21.606,86.351,21.581,86.423,21.581z"/>
				<path fill="#231815" d="M88.013,23.244c0.264-0.319,0.517-0.48,0.758-0.48c0.123,0,0.229,0.032,0.318,0.093
					c0.088,0.063,0.16,0.165,0.213,0.305c0.035,0.102,0.055,0.25,0.055,0.453v0.967c0,0.144,0.01,0.242,0.033,0.294
					c0.02,0.038,0.047,0.071,0.09,0.095c0.041,0.025,0.113,0.037,0.221,0.037v0.087h-1.117v-0.087h0.045
					c0.105,0,0.18-0.017,0.223-0.052c0.043-0.032,0.072-0.076,0.088-0.142c0.006-0.023,0.01-0.102,0.01-0.232v-0.924
					c0-0.206-0.025-0.356-0.08-0.451c-0.054-0.093-0.145-0.137-0.27-0.137c-0.197,0-0.393,0.106-0.586,0.317v1.194
					c0,0.153,0.008,0.25,0.027,0.285c0.022,0.047,0.055,0.084,0.094,0.106c0.042,0.023,0.122,0.035,0.247,0.035v0.087h-1.12v-0.087
					h0.05c0.115,0,0.192-0.03,0.233-0.09c0.041-0.059,0.061-0.171,0.061-0.336v-0.84c0-0.269-0.006-0.435-0.018-0.494
					c-0.014-0.063-0.031-0.101-0.059-0.122c-0.025-0.023-0.06-0.034-0.1-0.034c-0.049,0-0.105,0.014-0.168,0.041l-0.035-0.089
					l0.681-0.279h0.106V23.244z"/>
				<path fill="#231815" d="M90.591,24.269c-0.141-0.066-0.247-0.16-0.32-0.282c-0.074-0.122-0.111-0.256-0.111-0.4
					c0-0.225,0.084-0.418,0.252-0.581c0.169-0.16,0.387-0.241,0.649-0.241c0.214,0,0.401,0.054,0.56,0.16h0.48
					c0.07,0,0.111,0.001,0.123,0.006c0.012,0.003,0.02,0.009,0.024,0.02c0.01,0.012,0.015,0.039,0.015,0.079
					c0,0.044-0.004,0.071-0.012,0.088c-0.005,0.008-0.014,0.017-0.027,0.019c-0.012,0.005-0.053,0.01-0.123,0.01h-0.294
					c0.091,0.116,0.138,0.267,0.138,0.451c0,0.212-0.08,0.393-0.242,0.544c-0.16,0.146-0.379,0.225-0.65,0.225
					c-0.111,0-0.225-0.016-0.345-0.051c-0.071,0.061-0.12,0.119-0.146,0.164c-0.023,0.046-0.037,0.089-0.037,0.119
					c0,0.029,0.014,0.056,0.039,0.082c0.031,0.026,0.082,0.047,0.16,0.058c0.045,0.007,0.16,0.013,0.347,0.017
					c0.337,0.012,0.559,0.022,0.657,0.035c0.156,0.02,0.277,0.079,0.37,0.17c0.091,0.094,0.136,0.205,0.136,0.342
					c0,0.186-0.088,0.358-0.26,0.522c-0.256,0.242-0.596,0.36-1.008,0.36c-0.318,0-0.584-0.071-0.805-0.215
					c-0.123-0.082-0.187-0.168-0.187-0.258c0-0.039,0.009-0.075,0.028-0.117c0.027-0.063,0.086-0.146,0.172-0.255
					c0.012-0.015,0.096-0.105,0.255-0.265c-0.087-0.053-0.148-0.096-0.183-0.137c-0.035-0.043-0.055-0.086-0.055-0.14
					c0-0.056,0.023-0.127,0.07-0.204C90.311,24.52,90.419,24.409,90.591,24.269z M90.561,25.094
					c-0.075,0.083-0.132,0.161-0.174,0.231c-0.04,0.075-0.059,0.142-0.059,0.201c0,0.082,0.048,0.15,0.145,0.21
					c0.162,0.103,0.402,0.153,0.711,0.153c0.297,0,0.516-0.054,0.656-0.158c0.141-0.104,0.211-0.217,0.211-0.334
					c0-0.086-0.041-0.147-0.125-0.182c-0.086-0.037-0.255-0.06-0.51-0.067C91.048,25.14,90.763,25.121,90.561,25.094z
					 M91.019,22.882c-0.123,0-0.226,0.051-0.307,0.148c-0.082,0.096-0.121,0.245-0.121,0.448c0,0.258,0.054,0.462,0.167,0.603
					c0.083,0.109,0.19,0.162,0.323,0.162c0.125,0,0.229-0.045,0.311-0.139c0.08-0.096,0.12-0.241,0.12-0.443
					c0-0.263-0.056-0.467-0.171-0.612C91.257,22.936,91.149,22.882,91.019,22.882z"/>
				<path fill="#231815" d="M93.817,23.056l0.696-0.281h0.093v0.526c0.117-0.199,0.234-0.339,0.35-0.419
					c0.12-0.078,0.244-0.118,0.373-0.118c0.229,0,0.418,0.091,0.568,0.268c0.186,0.218,0.281,0.5,0.281,0.85
					c0,0.39-0.113,0.714-0.337,0.967c-0.185,0.21-0.417,0.313-0.696,0.313c-0.125,0-0.227-0.019-0.315-0.051
					c-0.067-0.023-0.142-0.074-0.224-0.146v0.688c0,0.154,0.008,0.254,0.027,0.297c0.021,0.039,0.053,0.072,0.101,0.101
					c0.048,0.024,0.132,0.037,0.256,0.037v0.09h-1.184v-0.09h0.06c0.09,0.002,0.166-0.017,0.23-0.052
					c0.033-0.022,0.057-0.051,0.074-0.09c0.018-0.041,0.026-0.142,0.026-0.307v-2.139c0-0.148-0.007-0.238-0.021-0.281
					c-0.013-0.041-0.032-0.067-0.063-0.086c-0.026-0.021-0.066-0.033-0.117-0.033c-0.039,0-0.089,0.014-0.148,0.035L93.817,23.056z
					 M94.606,23.448v0.846c0,0.18,0.008,0.301,0.023,0.36c0.021,0.096,0.078,0.179,0.166,0.252c0.094,0.073,0.205,0.107,0.342,0.107
					c0.164,0,0.299-0.064,0.4-0.193c0.132-0.166,0.199-0.402,0.199-0.705c0-0.348-0.076-0.612-0.227-0.802
					c-0.107-0.129-0.23-0.19-0.375-0.19c-0.08,0-0.158,0.019-0.234,0.058C94.842,23.212,94.743,23.3,94.606,23.448z"/>
				<path fill="#231815" d="M97.716,22.764c0.344,0,0.617,0.129,0.825,0.393c0.175,0.22,0.265,0.475,0.265,0.766
					c0,0.202-0.048,0.406-0.146,0.614c-0.098,0.209-0.23,0.363-0.4,0.471c-0.17,0.104-0.359,0.154-0.57,0.154
					c-0.34,0-0.609-0.136-0.812-0.406c-0.169-0.229-0.255-0.486-0.255-0.771c0-0.208,0.052-0.413,0.154-0.619
					c0.104-0.205,0.239-0.356,0.407-0.453C97.351,22.812,97.528,22.764,97.716,22.764z M97.64,22.925
					c-0.086,0-0.174,0.025-0.264,0.078c-0.087,0.053-0.159,0.144-0.213,0.274c-0.055,0.128-0.08,0.296-0.08,0.499
					c0,0.33,0.062,0.611,0.193,0.853c0.133,0.24,0.305,0.36,0.518,0.36c0.163,0,0.293-0.067,0.396-0.199
					c0.104-0.133,0.154-0.359,0.154-0.679c0-0.402-0.086-0.72-0.258-0.95C97.97,23.005,97.821,22.925,97.64,22.925z"/>
				<path fill="#231815" d="M99.897,23.244c0.268-0.319,0.521-0.48,0.76-0.48c0.125,0,0.23,0.032,0.318,0.093
					c0.09,0.063,0.16,0.165,0.213,0.305c0.037,0.102,0.054,0.25,0.054,0.453v0.967c0,0.144,0.013,0.242,0.036,0.294
					c0.016,0.038,0.047,0.071,0.086,0.095c0.039,0.025,0.115,0.037,0.227,0.037v0.087h-1.12v-0.087h0.046
					c0.105,0,0.181-0.017,0.222-0.052c0.044-0.032,0.069-0.076,0.087-0.142c0.007-0.023,0.012-0.102,0.012-0.232v-0.924
					c0-0.206-0.029-0.356-0.084-0.451c-0.053-0.093-0.142-0.137-0.268-0.137c-0.197,0-0.391,0.106-0.588,0.317v1.194
					c0,0.153,0.01,0.25,0.029,0.285c0.021,0.047,0.054,0.084,0.096,0.106c0.039,0.023,0.121,0.035,0.244,0.035v0.087h-1.118v-0.087
					h0.049c0.116,0,0.194-0.03,0.234-0.09c0.04-0.059,0.062-0.171,0.062-0.336v-0.84c0-0.269-0.007-0.435-0.02-0.494
					c-0.011-0.063-0.032-0.101-0.057-0.122c-0.024-0.023-0.062-0.034-0.103-0.034c-0.043,0-0.102,0.014-0.165,0.041l-0.038-0.089
					l0.684-0.279h0.104V23.244z"/>
				<path fill="#231815" d="M102.476,24.269c-0.137-0.066-0.244-0.16-0.318-0.282c-0.074-0.122-0.113-0.256-0.113-0.4
					c0-0.225,0.086-0.418,0.256-0.581c0.168-0.16,0.384-0.241,0.648-0.241c0.217,0,0.4,0.054,0.561,0.16h0.479
					c0.07,0,0.109,0.001,0.123,0.006c0.012,0.003,0.02,0.009,0.025,0.02c0.01,0.012,0.016,0.039,0.016,0.079
					c0,0.044-0.006,0.071-0.014,0.088c-0.004,0.008-0.012,0.017-0.025,0.019c-0.016,0.005-0.055,0.01-0.125,0.01h-0.293
					c0.092,0.116,0.135,0.267,0.135,0.451c0,0.212-0.078,0.393-0.239,0.544c-0.161,0.146-0.378,0.225-0.649,0.225
					c-0.111,0-0.229-0.016-0.346-0.051c-0.072,0.061-0.12,0.119-0.145,0.164c-0.025,0.046-0.039,0.089-0.039,0.119
					c0,0.029,0.014,0.056,0.041,0.082c0.025,0.026,0.08,0.047,0.16,0.058c0.044,0.007,0.161,0.013,0.344,0.017
					c0.341,0.012,0.561,0.022,0.66,0.035c0.152,0.02,0.274,0.079,0.365,0.17c0.093,0.094,0.139,0.205,0.139,0.342
					c0,0.186-0.088,0.358-0.26,0.522c-0.26,0.242-0.594,0.36-1.009,0.36c-0.316,0-0.586-0.071-0.804-0.215
					c-0.123-0.082-0.185-0.168-0.185-0.258c0-0.039,0.011-0.075,0.026-0.117c0.03-0.063,0.086-0.146,0.172-0.255
					c0.014-0.015,0.097-0.105,0.254-0.265c-0.087-0.053-0.146-0.096-0.182-0.137c-0.036-0.043-0.054-0.086-0.054-0.14
					c0-0.056,0.023-0.127,0.069-0.204C102.198,24.52,102.308,24.409,102.476,24.269z M102.451,25.094
					c-0.08,0.083-0.136,0.161-0.175,0.231c-0.041,0.075-0.061,0.142-0.061,0.201c0,0.082,0.049,0.15,0.145,0.21
					c0.162,0.103,0.402,0.153,0.713,0.153c0.296,0,0.517-0.054,0.656-0.158c0.139-0.104,0.21-0.217,0.21-0.334
					c0-0.086-0.042-0.147-0.127-0.182c-0.083-0.037-0.255-0.06-0.505-0.067C102.935,25.14,102.649,25.121,102.451,25.094z
					 M102.905,22.882c-0.121,0-0.225,0.051-0.305,0.148c-0.083,0.096-0.125,0.245-0.125,0.448c0,0.258,0.056,0.462,0.168,0.603
					c0.086,0.109,0.195,0.162,0.326,0.162c0.125,0,0.228-0.045,0.309-0.139c0.08-0.096,0.121-0.241,0.121-0.443
					c0-0.263-0.059-0.467-0.172-0.612C103.144,22.936,103.038,22.882,102.905,22.882z"/>
				<path fill="#231815" d="M104.615,25.935v-0.108c0.168-0.058,0.3-0.145,0.393-0.261c0.093-0.118,0.14-0.243,0.14-0.372
					c0-0.033-0.008-0.062-0.021-0.084c-0.014-0.012-0.024-0.019-0.033-0.019c-0.02,0-0.059,0.014-0.12,0.048
					c-0.032,0.014-0.062,0.021-0.095,0.021c-0.08,0-0.145-0.023-0.191-0.069c-0.048-0.05-0.071-0.112-0.071-0.198
					c0-0.083,0.03-0.149,0.091-0.209c0.063-0.056,0.139-0.086,0.229-0.086c0.107,0,0.204,0.049,0.288,0.145
					c0.086,0.093,0.128,0.219,0.128,0.375c0,0.17-0.061,0.329-0.178,0.476C105.056,25.736,104.869,25.854,104.615,25.935z"/>
				<path fill="#231815" d="M106.487,23.222c0.218-0.305,0.455-0.458,0.709-0.458c0.23,0,0.432,0.099,0.604,0.301
					c0.174,0.198,0.261,0.467,0.261,0.812c0,0.399-0.133,0.725-0.398,0.97c-0.229,0.212-0.484,0.315-0.766,0.315
					c-0.133,0-0.266-0.023-0.402-0.069c-0.135-0.05-0.273-0.119-0.416-0.215v-2.345c0-0.258-0.008-0.416-0.019-0.473
					c-0.011-0.061-0.033-0.1-0.058-0.123c-0.027-0.021-0.061-0.034-0.102-0.034c-0.045,0-0.102,0.015-0.171,0.042l-0.034-0.086
					l0.68-0.277h0.111V23.222z M106.487,23.378v1.357c0.083,0.081,0.17,0.145,0.26,0.184c0.09,0.044,0.18,0.065,0.275,0.065
					c0.151,0,0.289-0.084,0.419-0.249c0.128-0.161,0.192-0.402,0.192-0.719c0-0.289-0.064-0.509-0.192-0.667
					c-0.13-0.157-0.277-0.233-0.441-0.233c-0.086,0-0.175,0.021-0.262,0.066C106.673,23.214,106.589,23.282,106.487,23.378z"/>
				<path fill="#231815" d="M109.778,24.769c-0.231,0.178-0.38,0.282-0.437,0.31c-0.09,0.039-0.185,0.061-0.284,0.061
					c-0.156,0-0.287-0.051-0.387-0.158c-0.101-0.109-0.149-0.247-0.149-0.422c0-0.11,0.022-0.206,0.071-0.289
					c0.066-0.111,0.186-0.218,0.352-0.316c0.168-0.098,0.446-0.219,0.834-0.359v-0.088c0-0.226-0.034-0.382-0.107-0.464
					c-0.071-0.088-0.174-0.129-0.313-0.129c-0.105,0-0.186,0.029-0.247,0.084c-0.062,0.058-0.093,0.122-0.093,0.192l0.004,0.146
					c0,0.072-0.02,0.135-0.057,0.174c-0.041,0.04-0.092,0.062-0.153,0.062c-0.06,0-0.112-0.021-0.147-0.062
					c-0.04-0.044-0.059-0.104-0.059-0.178c0-0.142,0.07-0.27,0.215-0.389c0.146-0.117,0.35-0.18,0.612-0.18
					c0.198,0,0.364,0.034,0.493,0.101c0.098,0.052,0.169,0.133,0.216,0.239c0.029,0.07,0.045,0.216,0.045,0.436v0.768
					c0,0.216,0.003,0.348,0.011,0.396c0.008,0.05,0.021,0.083,0.041,0.1c0.019,0.015,0.039,0.024,0.066,0.024
					c0.025,0,0.049-0.006,0.068-0.019c0.035-0.018,0.102-0.08,0.201-0.179v0.14c-0.186,0.245-0.361,0.369-0.532,0.369
					c-0.077,0-0.144-0.027-0.192-0.084C109.806,24.999,109.78,24.901,109.778,24.769z M109.778,24.607v-0.864
					c-0.248,0.1-0.408,0.172-0.482,0.211c-0.129,0.073-0.223,0.149-0.277,0.228c-0.056,0.077-0.084,0.167-0.084,0.263
					c0,0.115,0.034,0.213,0.105,0.291c0.071,0.078,0.152,0.119,0.246,0.119C109.409,24.854,109.573,24.774,109.778,24.607z"/>
				<path fill="#231815" d="M111.505,22.764v0.511c0.189-0.341,0.383-0.511,0.584-0.511c0.09,0,0.162,0.028,0.223,0.084
					c0.06,0.053,0.092,0.118,0.092,0.191c0,0.063-0.023,0.119-0.066,0.161c-0.041,0.047-0.094,0.07-0.152,0.07
					c-0.057,0-0.123-0.029-0.193-0.088c-0.071-0.057-0.125-0.086-0.16-0.086c-0.029,0-0.062,0.017-0.098,0.051
					c-0.074,0.066-0.148,0.178-0.229,0.336v1.082c0,0.123,0.016,0.221,0.045,0.282c0.021,0.046,0.061,0.083,0.115,0.112
					c0.054,0.029,0.134,0.047,0.234,0.047v0.087h-1.158v-0.087c0.116,0,0.203-0.017,0.258-0.057
					c0.041-0.027,0.068-0.071,0.086-0.127c0.008-0.027,0.014-0.106,0.014-0.239v-0.875c0-0.264-0.006-0.421-0.018-0.473
					c-0.011-0.052-0.027-0.086-0.06-0.109c-0.027-0.023-0.064-0.036-0.105-0.036c-0.051,0-0.109,0.014-0.174,0.041l-0.023-0.089
					l0.682-0.279H111.505z"/>
			</g>
		</g>
		<g>
			<path fill="#231815" d="M19.628,13.675v2.73c0,0.523,0.087,0.886,0.266,1.092c0.178,0.206,0.551,0.305,1.115,0.305h0.264v0.937
				h-6.21v-0.937h0.204c0.572,0,0.945-0.101,1.12-0.312c0.172-0.21,0.258-0.572,0.258-1.082V9.64c0-0.521-0.087-0.886-0.266-1.089
				c-0.175-0.209-0.544-0.308-1.101-0.308H15V7.308l4.636-0.122c1.156,0,2.051,0.029,2.684,0.091
				c0.631,0.062,1.211,0.233,1.737,0.517c0.53,0.28,0.927,0.656,1.193,1.117c0.268,0.467,0.401,0.973,0.401,1.527
				c0,0.75-0.233,1.39-0.695,1.922c-0.466,0.533-1.045,0.886-1.74,1.057c-0.693,0.173-1.609,0.258-2.746,0.258H19.628z
				 M19.628,12.649h0.563c0.906,0,1.508-0.195,1.81-0.585c0.302-0.389,0.452-0.911,0.452-1.563c0-0.584-0.111-1.058-0.334-1.418
				c-0.221-0.363-0.502-0.6-0.844-0.709c-0.34-0.111-0.891-0.164-1.646-0.164V12.649z"/>
			<path fill="#231815" d="M30.349,13.27v2.831c0,0.539,0.031,0.896,0.094,1.061c0.06,0.166,0.226,0.307,0.497,0.414
				c0.271,0.113,0.683,0.165,1.235,0.165c0.748,0,1.3-0.092,1.652-0.276c0.352-0.189,0.668-0.519,0.947-0.986
				c0.279-0.469,0.48-0.968,0.604-1.499h0.932l-0.075,3.757H25.783v-0.937h0.212c0.57,0,0.941-0.099,1.113-0.31
				c0.172-0.212,0.258-0.573,0.258-1.082V9.637c0-0.519-0.09-0.883-0.267-1.088c-0.179-0.207-0.546-0.306-1.104-0.306h-0.212V7.308
				h9.751l0.156,2.95h-0.932c-0.172-0.514-0.359-0.928-0.568-1.234c-0.208-0.306-0.419-0.501-0.632-0.59
				c-0.211-0.09-0.567-0.131-1.07-0.131h-2.14v3.911h1.08c0.514,0,0.854-0.091,1.021-0.282c0.17-0.184,0.266-0.559,0.289-1.11h0.931
				v3.88h-0.931c0.006-0.075,0.01-0.127,0.01-0.161c0-0.322-0.071-0.613-0.212-0.877c-0.14-0.26-0.498-0.393-1.075-0.393H30.349z"/>
			<path fill="#231815" d="M40.019,10.61v5.219c0,0.836,0.153,1.375,0.462,1.617c0.309,0.242,0.703,0.354,1.185,0.354v0.937h-4.317
				v-0.937c0.367,0,0.686-0.086,0.957-0.262c0.271-0.177,0.443-0.384,0.517-0.614c0.074-0.236,0.11-0.604,0.11-1.102V9.986
				c0-1.163-0.548-1.743-1.646-1.743V7.308h3.877l6.248,6.988v-4.186c0-1.243-0.531-1.866-1.585-1.866V7.308h4.13v0.936
				c-0.287,0-0.559,0.077-0.811,0.233c-0.252,0.156-0.422,0.358-0.514,0.604c-0.09,0.244-0.136,0.599-0.136,1.065v8.776h-1.085
				L40.019,10.61z"/>
			<path fill="#231815" d="M55.026,8.364h-0.969c-0.578,0-1.004,0.063-1.273,0.183c-0.271,0.126-0.5,0.364-0.685,0.729
				c-0.183,0.36-0.295,0.793-0.335,1.294h-0.93V7.308h11.426v3.263h-0.934c-0.178-0.864-0.433-1.45-0.761-1.752
				c-0.327-0.303-0.853-0.454-1.567-0.454h-0.994v8.047c0,0.52,0.091,0.881,0.266,1.087c0.178,0.206,0.549,0.303,1.117,0.303h0.295
				v0.937h-6.305v-0.937h0.271c0.575,0,0.948-0.099,1.12-0.31c0.171-0.21,0.258-0.57,0.258-1.08V8.364z"/>
			<path fill="#231815" d="M72.058,13.27v3.139c0,0.53,0.092,0.897,0.279,1.098c0.188,0.199,0.59,0.294,1.209,0.294v0.937h-5.961
				v-0.937c0.598,0,0.994-0.09,1.191-0.278c0.199-0.189,0.299-0.562,0.299-1.115V9.64c0-0.537-0.092-0.907-0.281-1.104
				c-0.187-0.196-0.59-0.292-1.209-0.292V7.308h5.961v0.936c-0.602,0-0.998,0.096-1.195,0.289c-0.195,0.196-0.293,0.567-0.293,1.111
				v2.57h4.688v-2.57c0-0.528-0.093-0.896-0.275-1.098c-0.185-0.204-0.579-0.303-1.185-0.303V7.308h5.93v0.936
				c-0.599,0-0.996,0.091-1.195,0.276c-0.195,0.183-0.293,0.562-0.293,1.12v6.768c0,0.541,0.092,0.912,0.283,1.106
				c0.188,0.196,0.59,0.288,1.205,0.288v0.937h-5.93v-0.937c0.596,0,0.986-0.092,1.176-0.29c0.188-0.197,0.284-0.564,0.284-1.101
				V13.27H72.058z"/>
			<path fill="#231815" d="M80.862,12.988c0-1.031,0.283-2.038,0.858-3.017c0.573-0.982,1.353-1.705,2.331-2.174
				c0.982-0.471,2.033-0.708,3.151-0.708c2.011,0,3.59,0.583,4.737,1.745c1.141,1.161,1.714,2.59,1.714,4.28
				c0,1.604-0.573,2.983-1.712,4.14c-1.141,1.153-2.693,1.732-4.654,1.732c-1.347,0-2.532-0.286-3.564-0.856
				c-1.031-0.567-1.769-1.333-2.205-2.295C81.081,14.879,80.862,13.928,80.862,12.988z M84.368,12.894
				c0,1.76,0.236,3.027,0.712,3.808c0.474,0.78,1.179,1.165,2.112,1.165c0.977,0,1.713-0.353,2.209-1.065
				c0.497-0.71,0.745-1.956,0.745-3.738c0-1.628-0.234-2.846-0.7-3.649C88.981,8.61,88.241,8.21,87.226,8.21
				c-0.958,0-1.672,0.372-2.146,1.12C84.604,10.077,84.368,11.266,84.368,12.894z"/>
			<path fill="#231815" d="M93.339,8.243V7.308h6.025v0.936h-0.197c-0.565,0-0.936,0.101-1.103,0.309
				c-0.171,0.21-0.255,0.57-0.255,1.09v4.516c0,0.823,0.068,1.471,0.202,1.941c0.136,0.475,0.431,0.875,0.886,1.208
				c0.457,0.331,1.004,0.494,1.641,0.494c0.691,0,1.284-0.174,1.777-0.526c0.493-0.354,0.813-0.787,0.959-1.297
				c0.146-0.511,0.218-1.219,0.218-2.131V9.995c0-1.168-0.569-1.752-1.708-1.752V7.308h4.286v0.936
				c-0.247,0-0.505,0.066-0.774,0.206c-0.27,0.135-0.459,0.327-0.561,0.57c-0.105,0.246-0.154,0.59-0.154,1.026v3.823
				c0,0.823-0.055,1.493-0.157,2.014c-0.104,0.522-0.35,1.02-0.737,1.501c-0.39,0.482-0.93,0.869-1.621,1.164
				c-0.691,0.291-1.457,0.439-2.301,0.439c-0.885,0-1.676-0.147-2.375-0.435c-0.701-0.293-1.236-0.655-1.607-1.098
				c-0.371-0.444-0.624-0.927-0.756-1.446c-0.131-0.518-0.196-1.137-0.196-1.854V9.642c0-0.539-0.095-0.909-0.278-1.106
				C94.364,8.339,93.962,8.243,93.339,8.243z"/>
			<path fill="#231815" d="M106.243,18.58v-3.911h1.021c0.283,1.148,0.705,1.97,1.27,2.462c0.563,0.491,1.171,0.735,1.823,0.735
				c0.485,0,0.87-0.143,1.157-0.431c0.289-0.288,0.432-0.625,0.432-1.016c0-0.274-0.09-0.553-0.273-0.829
				c-0.181-0.273-0.612-0.584-1.295-0.92c-1.301-0.63-2.178-1.097-2.635-1.398c-0.455-0.302-0.82-0.688-1.096-1.159
				c-0.278-0.473-0.416-1.017-0.416-1.63c0-0.983,0.357-1.797,1.072-2.435c0.714-0.641,1.539-0.96,2.477-0.96
				c0.984,0,1.82,0.322,2.51,0.962c0.113-0.158,0.205-0.408,0.277-0.744h0.932v3.387h-0.901c-0.171-0.758-0.497-1.382-0.976-1.874
				c-0.48-0.488-1.02-0.734-1.618-0.734c-0.452,0-0.81,0.124-1.077,0.374c-0.264,0.247-0.395,0.557-0.395,0.932
				c0,0.288,0.084,0.557,0.249,0.802c0.169,0.245,0.394,0.447,0.677,0.612c0.287,0.158,0.896,0.458,1.822,0.89
				c0.835,0.396,1.451,0.745,1.85,1.058c0.402,0.308,0.718,0.699,0.951,1.169c0.232,0.468,0.35,0.978,0.35,1.522
				c0,1.016-0.373,1.857-1.121,2.533c-0.748,0.671-1.639,1.01-2.674,1.01c-0.59,0-1.165-0.124-1.729-0.367
				c-0.563-0.244-1.017-0.568-1.353-0.97c-0.132,0.255-0.226,0.564-0.289,0.93H106.243z"/>
			<path fill="#231815" d="M119.04,13.27v2.831c0,0.539,0.028,0.896,0.09,1.061c0.064,0.166,0.229,0.307,0.5,0.414
				c0.27,0.113,0.683,0.165,1.232,0.165c0.75,0,1.303-0.092,1.654-0.276c0.356-0.189,0.669-0.519,0.947-0.986
				c0.278-0.469,0.48-0.968,0.605-1.499H125l-0.074,3.757h-10.452v-0.937h0.211c0.568,0,0.941-0.099,1.113-0.31
				c0.172-0.212,0.259-0.573,0.259-1.082V9.637c0-0.519-0.089-0.883-0.267-1.088c-0.178-0.207-0.545-0.306-1.105-0.306h-0.211V7.308
				h9.75l0.157,2.95h-0.933c-0.168-0.514-0.357-0.928-0.568-1.234c-0.21-0.306-0.418-0.501-0.629-0.59
				c-0.211-0.09-0.568-0.131-1.07-0.131h-2.141v3.911h1.078c0.512,0,0.855-0.091,1.024-0.282c0.167-0.184,0.265-0.559,0.286-1.11
				h0.932v3.88h-0.932c0.006-0.075,0.011-0.127,0.011-0.161c0-0.322-0.071-0.613-0.21-0.877c-0.141-0.26-0.498-0.393-1.076-0.393
				H119.04z"/>
		</g>
	</g>
</g>
</svg>
