<?xml version="1.0" encoding="utf-8"?>
<!-- Generator: Adobe Illustrator 17.0.0, SVG Export Plug-In . SVG Version: 6.00 Build 0)  -->
<!DOCTYPE svg PUBLIC "-//W3C//DTD SVG 1.1//EN" "http://www.w3.org/Graphics/SVG/1.1/DTD/svg11.dtd">
<svg version="1.1" id="Layer_1" xmlns="http://www.w3.org/2000/svg" xmlns:xlink="http://www.w3.org/1999/xlink" x="0px" y="0px"
	 width="90px" height="71px" viewBox="0 0 90 71" enable-background="new 0 0 90 71" xml:space="preserve">
<g>
	<rect x="0" y="0" fill="none" width="90" height="71"/>
	<g>
		<g>
			<path fill="#231815" d="M20.201,52.85c-0.376-0.027-0.616-0.125-0.741-0.457l0.068-0.049c0.166,0.201,0.309,0.256,0.632,0.256
				c0.26,0,0.594-0.049,0.856-0.123c0.048-0.012,0.101-0.033,0.17-0.033c0.135,0,0.234,0.113,0.234,0.221
				c0,0.066-0.049,0.109-0.152,0.117c-0.188,0.021-0.353,0.045-0.483,0.068c-0.117,0.02-0.232,0.053-0.316,0.084
				c-0.527,0.223-0.945,0.682-0.945,1.133c0,0.367,0.26,0.582,0.998,0.582c0.251,0,0.429-0.02,0.567-0.039
				c0.058-0.01,0.097-0.021,0.142-0.033c0.037-0.012,0.075-0.024,0.121-0.024c0.004,0,0.008,0,0.008,0
				c0.186,0,0.317,0.084,0.317,0.197c0,0.074-0.025,0.121-0.135,0.158c-0.118,0.033-0.396,0.064-0.826,0.064
				c-0.929,0-1.406-0.268-1.406-0.826c0-0.437,0.255-0.818,0.891-1.285V52.85z"/>
			<path fill="#231815" d="M24.439,55.014c0.884-0.275,1.398-0.736,1.398-1.399c0-0.563-0.482-1.021-1.192-1.025
				c-0.019,0-0.041,0-0.057,0c-0.053,0-0.102,0.004-0.154,0.01c0.147,0.119,0.228,0.25,0.228,0.314c0,0.066-0.041,0.146-0.085,0.242
				c-0.057,0.131-0.183,0.414-0.333,0.695c-0.133,0.25-0.299,0.521-0.438,0.68c-0.118,0.139-0.214,0.195-0.327,0.195
				c-0.094,0-0.216-0.066-0.322-0.199c-0.12-0.158-0.201-0.396-0.201-0.668c0-0.787,0.744-1.439,1.702-1.439
				c0.908,0,1.511,0.557,1.511,1.256c0,0.885-0.758,1.293-1.706,1.432L24.439,55.014z M23.192,53.777
				c0,0.211,0.06,0.391,0.132,0.482c0.05,0.063,0.118,0.102,0.17,0.102c0.062,0,0.126-0.033,0.212-0.141
				c0.222-0.293,0.433-0.719,0.575-1.104c0.032-0.09,0.064-0.191,0.064-0.283c0-0.068-0.017-0.139-0.069-0.211
				C23.657,52.756,23.192,53.219,23.192,53.777z"/>
			<path fill="#231815" d="M26.885,53.482c0.06,0.08,0.126,0.117,0.19,0.117c0.044,0,0.093-0.018,0.184-0.09
				c0.182-0.137,0.375-0.303,0.546-0.445c0.147-0.113,0.271-0.17,0.397-0.17c0.154,0,0.287,0.061,0.494,0.203
				c0.567,0.404,1.045,0.688,1.561,0.91c0.142,0.063,0.193,0.131,0.193,0.229v0.008c0,0.113-0.067,0.17-0.182,0.17
				c-0.108,0-0.254-0.074-0.413-0.17c-0.386-0.244-0.749-0.49-1.333-0.98c-0.139-0.119-0.23-0.166-0.32-0.166
				c-0.065,0.002-0.163,0.059-0.259,0.152c-0.188,0.172-0.395,0.385-0.593,0.625c-0.065,0.076-0.101,0.113-0.157,0.113
				c-0.053,0-0.125-0.049-0.207-0.121c-0.101-0.094-0.146-0.201-0.154-0.275c-0.005-0.037-0.008-0.057-0.008-0.086L26.885,53.482z"
				/>
			<path fill="#231815" d="M31.855,53.842c0.132-0.084,0.256-0.125,0.394-0.125c0.158,0,0.283,0.066,0.382,0.184
				c0.076,0.092,0.121,0.227,0.148,0.529c0.033,0.336,0.122,0.439,0.301,0.439c0.243,0,0.44-0.098,0.66-0.326
				c0.243-0.256,0.413-0.555,0.576-1l0.098,0.023c-0.094,0.43-0.245,0.82-0.463,1.107c-0.24,0.313-0.556,0.494-0.839,0.494
				c-0.382,0-0.599-0.195-0.599-0.705c0-0.475-0.095-0.596-0.317-0.596c-0.198,0-0.39,0.178-0.49,0.344
				c-0.134,0.219-0.248,0.438-0.378,0.723c-0.037,0.076-0.084,0.117-0.162,0.121c-0.004,0-0.004,0-0.004,0
				c-0.085,0-0.162-0.068-0.162-0.17c0-0.072,0.049-0.174,0.102-0.26c0.105-0.158,0.207-0.313,0.28-0.43
				c0.26-0.438,0.567-1.018,0.863-1.633c0.044-0.102,0.068-0.18,0.068-0.238c0-0.09-0.053-0.162-0.243-0.217v-0.072
				c0.072-0.012,0.134-0.02,0.19-0.02c0.105,0,0.284,0.121,0.409,0.271c0.037,0.049,0.049,0.09,0.049,0.129
				c0,0.041-0.032,0.072-0.085,0.113c-0.049,0.041-0.085,0.082-0.146,0.195c-0.228,0.396-0.434,0.762-0.637,1.115L31.855,53.842z"/>
			<path fill="#231815" d="M36.603,55.014c0.885-0.275,1.399-0.736,1.399-1.399c0-0.563-0.483-1.021-1.192-1.025
				c-0.019,0-0.041,0-0.057,0c-0.053,0-0.102,0.004-0.154,0.01c0.146,0.119,0.228,0.25,0.228,0.314c0,0.066-0.042,0.146-0.085,0.242
				c-0.057,0.131-0.183,0.414-0.333,0.695c-0.133,0.25-0.3,0.521-0.438,0.68c-0.118,0.139-0.215,0.195-0.327,0.195
				c-0.094,0-0.216-0.066-0.321-0.199c-0.121-0.158-0.202-0.396-0.202-0.668c0-0.787,0.744-1.439,1.701-1.439
				c0.908,0,1.512,0.557,1.512,1.256c0,0.885-0.758,1.293-1.706,1.432L36.603,55.014z M35.356,53.777
				c0,0.211,0.061,0.391,0.133,0.482c0.049,0.063,0.118,0.102,0.17,0.102c0.06,0,0.126-0.033,0.212-0.141
				c0.222-0.293,0.433-0.719,0.575-1.104c0.032-0.09,0.064-0.191,0.064-0.283c0-0.068-0.017-0.139-0.069-0.211
				C35.822,52.756,35.356,53.219,35.356,53.777z"/>
			<path fill="#231815" d="M39.45,52.816c0.146,0.131,0.269,0.188,0.463,0.188c0.173,0,0.491-0.061,0.811-0.17
				c-0.058-0.143-0.122-0.334-0.175-0.49c-0.068-0.207-0.104-0.227-0.222-0.233c-0.01,0-0.018,0-0.025,0
				c-0.068,0-0.113,0.014-0.166,0.029l-0.021-0.068c0.073-0.074,0.187-0.131,0.289-0.131c0.21,0,0.429,0.078,0.429,0.17
				c0,0.037-0.005,0.059-0.013,0.082c-0.004,0.012-0.008,0.029-0.008,0.049c0,0.037,0.008,0.076,0.013,0.117
				c0.028,0.141,0.057,0.248,0.109,0.396c0.279-0.113,0.434-0.186,0.506-0.275c0.041-0.049,0.106-0.088,0.231-0.088
				c0.114,0,0.175,0.072,0.175,0.15c0,0.059-0.037,0.092-0.098,0.129c-0.206,0.113-0.458,0.227-0.718,0.324
				c0.118,0.246,0.284,0.506,0.467,0.721c0.061,0.068,0.118,0.117,0.145,0.158c0.045,0.057,0.078,0.133,0.078,0.219
				c0,0.098-0.049,0.162-0.113,0.162c-0.057,0-0.105-0.023-0.167-0.076c-0.108-0.094-0.194-0.135-0.291-0.16
				c-0.166-0.043-0.382-0.07-0.561-0.07c-0.421,0-0.669,0.174-0.669,0.434c0,0.34,0.427,0.551,1.038,0.551
				c0.07,0,0.144-0.004,0.199-0.014c0.037-0.008,0.073-0.016,0.154-0.016c0.165,0,0.255,0.102,0.255,0.195
				c0,0.109-0.102,0.162-0.336,0.162c-1.027,0-1.531-0.346-1.531-0.832c0-0.381,0.352-0.652,0.967-0.652
				c0.199,0,0.389,0.012,0.58,0.041c-0.162-0.236-0.288-0.461-0.421-0.75c-0.349,0.105-0.652,0.178-0.815,0.178
				c-0.275,0-0.458-0.125-0.621-0.367L39.45,52.816z"/>
			<path fill="#231815" d="M45.529,54.082c0.16-0.022,0.328-0.045,0.416-0.074c0.061-0.016,0.082-0.047,0.082-0.1
				c-0.008-0.293-0.365-0.705-0.705-0.705c-0.203,0-0.391,0.17-0.568,0.42c-0.186,0.266-0.32,0.504-0.461,0.836
				c-0.024,0.057-0.029,0.098-0.029,0.125c0,0.029,0.012,0.057,0.018,0.076c0.016,0.045,0.023,0.082,0.023,0.123
				c0,0.072-0.065,0.121-0.125,0.121c0,0-0.004,0-0.008,0c-0.102,0-0.236-0.064-0.365-0.215c-0.275-0.324-0.396-0.762-0.393-1.443
				c0-0.275-0.004-0.449-0.021-0.527c-0.012-0.067-0.043-0.137-0.133-0.238l0.043-0.053c0.066,0.033,0.123,0.066,0.172,0.102
				c0.072,0.061,0.137,0.125,0.201,0.215c0.041,0.059,0.066,0.117,0.066,0.154c0,0.061-0.025,0.141-0.037,0.227
				c-0.02,0.098-0.037,0.256-0.037,0.418c0,0.019,0,0.037,0,0.057c0.004,0.301,0.086,0.588,0.219,0.725
				c0.024,0.029,0.053,0.041,0.076,0.041c0.035,0,0.063-0.016,0.107-0.08c0.303-0.475,0.551-0.836,0.781-1.035
				c0.154-0.133,0.313-0.197,0.516-0.197c0.563,0,1.049,0.551,1.049,1.07c0,0.186-0.064,0.279-0.166,0.279
				c-0.057,0-0.102-0.033-0.147-0.094c-0.035-0.057-0.109-0.088-0.178-0.105c-0.086-0.02-0.236-0.033-0.396-0.041V54.082z"/>
			<path fill="#231815" d="M48.258,51.941c0.09-0.053,0.174-0.076,0.236-0.076c0.064,0,0.186,0.024,0.287,0.068
				c0.072,0.033,0.102,0.072,0.102,0.125c0,0.033-0.018,0.061-0.021,0.105c0,0.018-0.004,0.033-0.004,0.049
				c0,0.021,0.004,0.045,0.008,0.066c0.012,0.061,0.029,0.133,0.049,0.215c0.105-0.037,0.207-0.082,0.281-0.123
				c0.031-0.02,0.08-0.045,0.121-0.08c0.023-0.025,0.072-0.053,0.154-0.053c0.121,0,0.172,0.053,0.172,0.121
				c0,0.049-0.018,0.09-0.104,0.125c-0.143,0.066-0.357,0.154-0.561,0.234c0.063,0.221,0.131,0.406,0.191,0.56
				c0.154-0.06,0.279-0.113,0.369-0.162c0.072-0.041,0.123-0.068,0.166-0.106c0.049-0.041,0.133-0.086,0.215-0.086
				c0.113,0,0.158,0.066,0.158,0.127c0,0.057-0.045,0.104-0.154,0.158c-0.162,0.072-0.393,0.174-0.664,0.275
				c0.121,0.244,0.26,0.445,0.393,0.611c0.08,0.098,0.113,0.174,0.113,0.305c0,0.109-0.053,0.158-0.113,0.158
				c-0.041,0-0.092-0.029-0.154-0.07c-0.191-0.141-0.416-0.23-0.789-0.23c-0.451,0-0.697,0.139-0.697,0.365
				c0,0.23,0.32,0.406,0.816,0.406c0.082,0,0.188,0,0.24-0.01c0.037-0.002,0.066-0.012,0.105-0.012c0.158,0,0.26,0.09,0.26,0.193
				c0,0.119-0.098,0.146-0.32,0.146c-0.822,0-1.301-0.277-1.301-0.676c0-0.346,0.381-0.576,0.961-0.576
				c0.178,0,0.389,0.012,0.592,0.045c-0.113-0.193-0.195-0.359-0.301-0.58c-0.332,0.106-0.627,0.162-0.787,0.162
				c-0.254,0-0.359-0.08-0.359-0.219c0-0.113,0.06-0.215,0.178-0.34c0.09-0.094,0.215-0.203,0.381-0.332
				c-0.158,0.053-0.309,0.072-0.453,0.072c-0.017,0-0.029,0-0.041,0c-0.137-0.004-0.324-0.08-0.449-0.211l0.045-0.068
				c0.109,0.064,0.221,0.086,0.4,0.086c0.147,0,0.385-0.037,0.719-0.143c-0.041-0.135-0.078-0.244-0.119-0.377
				c-0.039-0.135-0.105-0.191-0.316-0.191L48.258,51.941z M48.277,53.162c-0.109,0.113-0.164,0.197-0.164,0.26
				c0,0.057,0.043,0.084,0.164,0.084c0.123,0,0.383-0.047,0.701-0.158c-0.076-0.191-0.137-0.352-0.205-0.555
				C48.545,52.922,48.396,53.033,48.277,53.162z"/>
			<path fill="#231815" d="M52.131,53.842c0.131-0.084,0.256-0.125,0.392-0.125c0.158,0,0.285,0.066,0.381,0.184
				c0.078,0.092,0.121,0.227,0.15,0.529c0.033,0.336,0.121,0.439,0.301,0.439c0.242,0,0.441-0.098,0.66-0.326
				c0.244-0.256,0.414-0.555,0.574-1l0.098,0.023c-0.092,0.43-0.244,0.82-0.461,1.107c-0.24,0.313-0.557,0.494-0.84,0.494
				c-0.381,0-0.6-0.195-0.6-0.705c0-0.475-0.094-0.596-0.316-0.596c-0.197,0-0.389,0.178-0.49,0.344
				c-0.133,0.219-0.246,0.438-0.377,0.723c-0.037,0.076-0.084,0.117-0.162,0.121c0,0-0.004,0-0.008,0
				c-0.082,0-0.158-0.068-0.158-0.17c0-0.072,0.049-0.174,0.102-0.26c0.105-0.158,0.207-0.313,0.279-0.43
				c0.26-0.438,0.566-1.018,0.863-1.633c0.045-0.102,0.068-0.18,0.068-0.238c0-0.09-0.051-0.162-0.242-0.217v-0.072
				c0.072-0.012,0.133-0.02,0.191-0.02c0.104,0,0.283,0.121,0.408,0.271c0.037,0.049,0.049,0.09,0.049,0.129
				c0,0.041-0.031,0.072-0.086,0.113c-0.049,0.041-0.084,0.082-0.144,0.195c-0.227,0.396-0.436,0.762-0.637,1.115L52.131,53.842z"/>
			<path fill="#231815" d="M56.879,55.014c0.883-0.275,1.398-0.736,1.398-1.399c0-0.563-0.482-1.021-1.191-1.025
				c-0.019,0-0.041,0-0.057,0c-0.053,0-0.102,0.004-0.154,0.01c0.144,0.119,0.227,0.25,0.227,0.314c0,0.066-0.041,0.146-0.084,0.242
				c-0.059,0.131-0.184,0.414-0.334,0.695c-0.133,0.25-0.301,0.521-0.438,0.68c-0.117,0.139-0.213,0.195-0.328,0.195
				c-0.092,0-0.215-0.066-0.318-0.199c-0.123-0.158-0.205-0.396-0.205-0.668c0-0.787,0.746-1.439,1.703-1.439
				c0.908,0,1.512,0.557,1.512,1.256c0,0.885-0.758,1.293-1.707,1.432L56.879,55.014z M55.631,53.777
				c0,0.211,0.061,0.391,0.133,0.482c0.049,0.063,0.119,0.102,0.17,0.102c0.063,0,0.127-0.033,0.211-0.141
				c0.223-0.293,0.436-0.719,0.576-1.104c0.033-0.09,0.065-0.191,0.065-0.283c0-0.068-0.016-0.139-0.068-0.211
				C56.096,52.756,55.631,53.219,55.631,53.777z"/>
			<path fill="#231815" d="M61.318,52.152c0.076-0.045,0.142-0.064,0.211-0.064c0.119,0,0.309,0.076,0.416,0.17
				C61.984,52.291,62,52.318,62,52.352c0,0.037-0.016,0.064-0.037,0.092c-0.027,0.037-0.049,0.086-0.053,0.176
				c-0.004,0.057-0.004,0.117-0.004,0.197c0,0.037,0,0.074,0,0.117c0.117-0.012,0.219-0.023,0.313-0.039
				c0.023-0.004,0.053-0.021,0.068-0.029c0.035-0.023,0.074-0.035,0.125-0.035c0.127,0,0.252,0.068,0.252,0.152
				c0,0.078-0.041,0.131-0.143,0.143c-0.141,0.008-0.348,0.025-0.619,0.045c0.012,0.482,0.033,0.912,0.047,1.305
				c0.244,0.09,0.488,0.215,0.631,0.357c0.049,0.053,0.063,0.092,0.063,0.15c0,0.08-0.051,0.152-0.133,0.156
				c-0.064,0-0.113-0.024-0.178-0.088c-0.127-0.113-0.264-0.223-0.422-0.309c-0.082,0.252-0.309,0.393-0.699,0.393
				c-0.322,0-0.519-0.174-0.519-0.393c0-0.223,0.238-0.385,0.566-0.385c0.158,0,0.295,0.02,0.42,0.049
				c0-0.34-0.012-0.766-0.027-1.221c-0.305,0.029-0.518,0.049-0.611,0.049c-0.094,0-0.184-0.016-0.254-0.041
				c-0.055-0.016-0.119-0.027-0.15-0.027c-0.07,0-0.139,0.074-0.195,0.174c-0.125,0.23-0.328,0.721-0.43,1.256
				c-0.021,0.121-0.025,0.188-0.025,0.236c0,0.012,0,0.023,0,0.023c0,0.057,0.014,0.121,0.021,0.203
				c0.004,0.025,0.008,0.045,0.008,0.064c0,0.016-0.004,0.029-0.008,0.045c-0.006,0.068-0.033,0.109-0.094,0.109
				c-0.061,0-0.105-0.027-0.158-0.109c-0.133-0.238-0.191-0.629-0.191-1.025c0.006-0.348,0.082-0.785,0.24-1.357
				c0.053-0.191,0.086-0.354,0.086-0.418c0-0.088-0.018-0.17-0.09-0.287l0.047-0.041c0.029,0.016,0.063,0.037,0.1,0.066
				c0.072,0.059,0.133,0.137,0.193,0.258c0.037,0.072,0.057,0.15,0.057,0.207c0,0.064-0.031,0.121-0.08,0.223
				c-0.037,0.08-0.068,0.162-0.105,0.267c-0.121,0.336-0.227,0.717-0.23,1.041c0,0.139,0.008,0.275,0.02,0.365
				c0,0.008,0.008,0.016,0.008,0.016c0.016,0,0.025-0.008,0.027-0.02c0.154-0.486,0.346-0.957,0.56-1.281
				c0.065-0.109,0.158-0.17,0.231-0.174c0.01,0,0.018,0,0.023,0c0.021,0,0.043,0,0.066,0.004c0.057,0.004,0.113,0.008,0.195,0.008
				c0.234-0.008,0.469-0.027,0.738-0.051c-0.01-0.18-0.017-0.356-0.029-0.565c-0.008-0.098-0.033-0.135-0.078-0.154
				c-0.043-0.022-0.088-0.027-0.141-0.033c-0.021-0.004-0.041-0.004-0.07-0.004L61.318,52.152z M61.182,54.516
				c-0.203,0-0.346,0.078-0.346,0.201s0.109,0.213,0.369,0.213c0.283,0,0.422-0.131,0.449-0.309
				C61.537,54.568,61.363,54.516,61.182,54.516z"/>
			<path fill="#231815" d="M64.453,51.93c0.074-0.041,0.162-0.065,0.244-0.065c0.105,0,0.223,0.068,0.328,0.182
				c0.031,0.041,0.045,0.072,0.045,0.115c0,0.035-0.021,0.066-0.053,0.088c-0.041,0.029-0.064,0.076-0.086,0.117
				c-0.033,0.072-0.064,0.139-0.102,0.223c0.086-0.023,0.188-0.061,0.293-0.109c0.031-0.012,0.053-0.031,0.072-0.049
				c0.041-0.027,0.088-0.049,0.166-0.049c0.082,0,0.154,0.049,0.154,0.131c0,0.068-0.037,0.1-0.146,0.146
				c-0.174,0.07-0.41,0.137-0.648,0.197c-0.15,0.35-0.283,0.645-0.408,0.904l0.008,0.008c0.588-0.678,0.904-0.799,1.246-0.799
				c0.383,0,0.658,0.115,0.859,0.289c0.074,0.064,0.1,0.133,0.1,0.193c0,0.006,0,0.01,0,0.012c-0.006,0.07-0.045,0.123-0.115,0.123
				c-0.061,0-0.109-0.029-0.17-0.072c-0.148-0.123-0.207-0.172-0.332-0.172c-0.193,0-0.305,0.139-0.305,0.402
				c0,0.105,0.025,0.238,0.047,0.359c0.027,0.154,0.064,0.313,0.088,0.434c0.336,0.102,0.57,0.215,0.746,0.369
				c0.072,0.057,0.109,0.117,0.109,0.182v0.01c-0.004,0.076-0.053,0.146-0.15,0.146c-0.057,0-0.102-0.025-0.184-0.104
				c-0.137-0.123-0.318-0.258-0.51-0.348c-0.008,0.305-0.242,0.527-0.645,0.527c-0.348,0-0.562-0.18-0.562-0.406
				c0-0.283,0.279-0.441,0.633-0.441c0.104,0,0.197,0.004,0.299,0.021c-0.045-0.287-0.072-0.508-0.072-0.645
				c0-0.012,0-0.021,0-0.029c0.004-0.26,0.125-0.518,0.457-0.611c-0.133-0.066-0.285-0.09-0.41-0.09
				c-0.156,0-0.32,0.064-0.469,0.178c-0.277,0.211-0.652,0.658-0.836,0.98c-0.092,0.164-0.152,0.277-0.201,0.361
				c-0.033,0.064-0.082,0.098-0.143,0.098c-0.102-0.008-0.166-0.092-0.166-0.186c0-0.078,0.129-0.244,0.248-0.459
				c0.166-0.283,0.381-0.701,0.592-1.187c-0.135,0.027-0.293,0.049-0.398,0.049c-0.187,0-0.371-0.098-0.465-0.313l0.057-0.057
				c0.113,0.117,0.226,0.15,0.396,0.15c0.102,0,0.287-0.027,0.506-0.076c0.053-0.139,0.074-0.211,0.109-0.354
				c0.018-0.061,0.033-0.143,0.033-0.188c0-0.047-0.021-0.076-0.072-0.096c-0.033-0.018-0.09-0.027-0.15-0.027
				c-0.008,0-0.016,0-0.016,0L64.453,51.93z M65.105,54.648c-0.252,0-0.416,0.105-0.416,0.256c0,0.115,0.117,0.211,0.352,0.211
				c0.279,0,0.437-0.154,0.437-0.41C65.361,54.666,65.184,54.648,65.105,54.648z"/>
			<path fill="#231815" d="M70.689,54.271c-0.422,0.553-1.08,0.904-1.734,0.904c-0.244,0-0.41-0.053-0.535-0.166
				c-0.115-0.113-0.162-0.26-0.162-0.494c0-0.129,0.016-0.406,0.027-0.836c0.016-0.412,0.033-0.797,0.033-1.17
				c0-0.191-0.039-0.252-0.178-0.287c-0.063-0.018-0.104-0.018-0.143-0.018l-0.016-0.061c0.1-0.076,0.174-0.094,0.242-0.094
				c0.09,0,0.199,0.045,0.342,0.143c0.121,0.086,0.156,0.133,0.156,0.186c0,0.041-0.016,0.078-0.049,0.115
				c-0.027,0.031-0.039,0.084-0.047,0.17c-0.022,0.197-0.041,0.416-0.061,0.818c-0.014,0.307-0.018,0.543-0.018,0.732
				c0,0.063,0,0.113,0,0.168c0.004,0.223,0.021,0.33,0.094,0.412c0.074,0.074,0.186,0.098,0.324,0.098
				c0.498,0,1.146-0.219,1.656-0.693L70.689,54.271z"/>
		</g>
		<g>
			<g>
				<path fill="#4C4948" d="M20.231,25.041c-0.377,0-0.755-0.102-1.134-0.307c-0.38-0.203-0.756-0.465-1.127-0.785
					c-0.371-0.32-0.738-0.674-1.097-1.06c-0.361-0.389-0.705-0.766-1.032-1.135c-0.209-0.23-0.4-0.449-0.576-0.652
					c-0.176-0.203-0.349-0.387-0.515-0.545v2.9c0,0.24,0.007,0.426,0.023,0.559c0.017,0.131,0.04,0.229,0.072,0.293
					c0.031,0.064,0.074,0.104,0.126,0.119c0.051,0.018,0.109,0.029,0.173,0.037c0.088,0.016,0.18,0.029,0.276,0.043
					c0.096,0.012,0.2,0.049,0.311,0.111c0.065,0.025,0.083,0.063,0.06,0.115c-0.024,0.051-0.067,0.078-0.131,0.078
					c-0.481,0-0.96,0.01-1.439,0.029c-0.481,0.019-0.959,0.023-1.439,0.008c-0.079,0-0.121-0.033-0.126-0.098
					c-0.004-0.063,0.034-0.104,0.114-0.119c0.168-0.031,0.301-0.068,0.397-0.107c0.096-0.041,0.168-0.1,0.215-0.176
					c0.049-0.074,0.079-0.174,0.091-0.299c0.012-0.123,0.018-0.281,0.018-0.473V16.91c0-0.139-0.015-0.242-0.043-0.316
					c-0.026-0.078-0.065-0.137-0.112-0.176c-0.049-0.039-0.104-0.066-0.162-0.078c-0.059-0.012-0.118-0.021-0.175-0.031
					c-0.096-0.016-0.182-0.033-0.257-0.053c-0.077-0.02-0.139-0.07-0.186-0.15c-0.032-0.039-0.036-0.074-0.012-0.103
					c0.024-0.025,0.068-0.041,0.132-0.041c0.463,0,0.927-0.006,1.391-0.017c0.464-0.012,0.928,0,1.391,0.031
					c0.081,0.008,0.121,0.043,0.121,0.107c0,0.064-0.04,0.1-0.121,0.107c-0.191,0.016-0.355,0.1-0.492,0.252
					c-0.136,0.152-0.202,0.324-0.202,0.518c-0.008,0.43-0.008,0.887,0,1.365c0.008,0.481,0.017,0.951,0.024,1.414
					c0.136-0.158,0.295-0.334,0.479-0.527c0.184-0.189,0.341-0.35,0.468-0.479c0.04-0.041,0.09-0.094,0.151-0.156
					c0.059-0.063,0.116-0.121,0.173-0.168c0.151-0.143,0.324-0.303,0.516-0.473c0.193-0.172,0.369-0.35,0.534-0.529
					c0.163-0.178,0.302-0.354,0.413-0.527c0.112-0.172,0.168-0.324,0.168-0.461c0-0.113-0.023-0.213-0.072-0.299
					c-0.023-0.041-0.023-0.078,0-0.109c0.024-0.031,0.067-0.043,0.132-0.035c0.201,0.016,0.398,0.021,0.594,0.018
					c0.196-0.004,0.398-0.006,0.606-0.006c0.184,0,0.363-0.008,0.538-0.025c0.177-0.016,0.358-0.016,0.54,0
					c0.081,0.008,0.12,0.045,0.12,0.109c0,0.063-0.039,0.1-0.12,0.109c-0.255,0.031-0.521,0.129-0.797,0.291
					c-0.275,0.164-0.554,0.369-0.833,0.613c-0.281,0.242-0.559,0.512-0.835,0.803c-0.275,0.291-0.54,0.576-0.795,0.857
					c-0.193,0.217-0.382,0.422-0.566,0.619c-0.184,0.193-0.354,0.367-0.515,0.52c0.145,0.137,0.302,0.305,0.473,0.506
					c0.173,0.199,0.358,0.402,0.559,0.609c0.336,0.369,0.701,0.76,1.098,1.176c0.396,0.416,0.793,0.801,1.193,1.152
					c0.4,0.351,0.792,0.643,1.176,0.875c0.384,0.232,0.727,0.344,1.03,0.336l0.072,0.203C20.959,24.941,20.607,25.041,20.231,25.041
					z"/>
				<path fill="#4C4948" d="M31,22.307c-0.216,0.479-0.509,0.895-0.881,1.248c-0.372,0.35-0.806,0.643-1.301,0.873
					c-0.496,0.233-1.024,0.412-1.583,0.541c-0.049,0.006-0.107,0.016-0.175,0.023c-0.067,0.008-0.14,0.014-0.216,0.018
					c-0.076,0.006-0.154,0.008-0.234,0.008c-0.072,0-0.132,0-0.179,0c-0.329,0-0.668-0.061-1.019-0.182
					c-0.353-0.119-0.691-0.281-1.02-0.486c-0.329-0.203-0.638-0.445-0.93-0.725c-0.292-0.281-0.546-0.582-0.761-0.906
					c-0.217-0.322-0.389-0.66-0.516-1.012c-0.129-0.354-0.193-0.705-0.193-1.057c0-0.703,0.076-1.326,0.227-1.871
					c0.153-0.543,0.398-1.016,0.731-1.414c0.336-0.4,0.769-0.734,1.296-1.002c0.528-0.268,1.167-0.481,1.919-0.641
					c0.112-0.023,0.229-0.043,0.353-0.055c0.124-0.012,0.242-0.018,0.355-0.018c0.75,0,1.406,0.152,1.967,0.455
					c0.559,0.305,1.023,0.697,1.392,1.176c0.366,0.48,0.642,1.018,0.82,1.613c0.181,0.596,0.271,1.186,0.271,1.77
					C31.324,21.279,31.216,21.826,31,22.307z M29.885,19.086c-0.151-0.516-0.378-0.977-0.677-1.385
					c-0.3-0.408-0.668-0.74-1.104-0.996c-0.437-0.256-0.938-0.385-1.506-0.385c-0.536,0-1.01,0.102-1.421,0.295
					c-0.412,0.197-0.76,0.463-1.044,0.805c-0.283,0.338-0.499,0.734-0.647,1.186c-0.149,0.453-0.224,0.934-0.224,1.445
					c0,0.521,0.079,1.039,0.235,1.56c0.155,0.52,0.386,0.986,0.689,1.402s0.678,0.754,1.121,1.014
					c0.443,0.26,0.949,0.389,1.517,0.389c0.536,0,1.008-0.102,1.416-0.305c0.407-0.203,0.749-0.476,1.025-0.822
					c0.275-0.344,0.485-0.746,0.629-1.205c0.145-0.461,0.216-0.941,0.216-1.445C30.112,20.119,30.036,19.602,29.885,19.086z"/>
				<path fill="#4C4948" d="M41.248,16.369c-0.028,0.025-0.055,0.041-0.078,0.049c-0.129,0.039-0.255,0.084-0.379,0.133
					c-0.123,0.047-0.186,0.139-0.186,0.275c0,1.334,0.007,2.67,0.018,4.006c0.013,1.334-0.034,2.664-0.137,3.992
					c-0.008,0.049-0.039,0.08-0.09,0.096c-0.052,0.016-0.103,0.008-0.15-0.023c-0.511-0.432-1.018-0.891-1.517-1.381
					c-0.5-0.486-0.992-0.988-1.476-1.504c-0.484-0.514-0.961-1.035-1.433-1.559c-0.472-0.523-0.936-1.037-1.393-1.541
					c-0.136-0.16-0.252-0.291-0.347-0.394c-0.097-0.104-0.216-0.236-0.36-0.396c-0.024,0.232-0.036,0.451-0.036,0.658
					c0,0.402,0.008,0.797,0.025,1.188c0.016,0.393,0.033,0.785,0.049,1.176c0.017,0.406,0.031,0.81,0.048,1.207
					c0.016,0.393,0.024,0.791,0.024,1.193c0,0.189,0.015,0.342,0.047,0.455c0.031,0.111,0.073,0.199,0.125,0.262
					c0.053,0.066,0.115,0.111,0.188,0.139c0.071,0.027,0.144,0.051,0.215,0.066c0.08,0.016,0.162,0.037,0.246,0.066
					c0.084,0.029,0.17,0.07,0.257,0.125c0.058,0.033,0.073,0.07,0.05,0.115c-0.024,0.043-0.068,0.064-0.132,0.064l-1.524-0.035
					c-0.208-0.008-0.419,0.002-0.635,0.031c-0.216,0.025-0.42,0.02-0.611-0.02c-0.072-0.016-0.104-0.053-0.09-0.109
					c0.011-0.055,0.053-0.092,0.125-0.107l0.168-0.035c0.184-0.041,0.334-0.121,0.449-0.246c0.116-0.123,0.175-0.285,0.175-0.484
					v-7.557c0-0.063,0.016-0.117,0.048-0.162c0.032-0.043,0.072-0.09,0.12-0.137c0.064-0.049,0.127-0.049,0.192,0
					c2.214,2.262,4.377,4.557,6.487,6.883c0-0.064,0.002-0.125,0.006-0.186c0.004-0.061,0.006-0.121,0.006-0.186
					c0-0.881-0.013-1.756-0.041-2.627c-0.029-0.871-0.042-1.746-0.042-2.627c0-0.184-0.021-0.328-0.061-0.43
					c-0.039-0.105-0.09-0.184-0.15-0.234c-0.06-0.053-0.126-0.088-0.197-0.104c-0.072-0.016-0.144-0.031-0.216-0.047
					c-0.089-0.016-0.166-0.031-0.234-0.049c-0.067-0.016-0.122-0.049-0.162-0.096c-0.048-0.031-0.062-0.068-0.042-0.107
					c0.021-0.039,0.063-0.061,0.126-0.061h0.864c0.279,0,0.563-0.002,0.852-0.006c0.287-0.004,0.574,0.002,0.863,0.02l0.023,0.201
					C41.302,16.33,41.275,16.346,41.248,16.369z"/>
				<path fill="#4C4948" d="M51.221,22.307c-0.219,0.479-0.51,0.895-0.883,1.248c-0.371,0.35-0.805,0.643-1.301,0.873
					c-0.496,0.233-1.023,0.412-1.584,0.541c-0.047,0.006-0.105,0.016-0.174,0.023c-0.066,0.008-0.139,0.014-0.215,0.018
					c-0.076,0.006-0.156,0.008-0.234,0.008c-0.072,0-0.131,0-0.18,0c-0.328,0-0.668-0.061-1.02-0.182
					c-0.352-0.119-0.691-0.281-1.02-0.486c-0.328-0.203-0.637-0.445-0.93-0.725c-0.291-0.281-0.545-0.582-0.762-0.906
					c-0.215-0.322-0.389-0.66-0.516-1.012c-0.127-0.354-0.191-0.705-0.191-1.057c0-0.703,0.076-1.326,0.229-1.871
					c0.15-0.543,0.394-1.016,0.73-1.414c0.336-0.4,0.768-0.734,1.295-1.002c0.529-0.268,1.168-0.481,1.92-0.641
					c0.111-0.023,0.231-0.043,0.354-0.055c0.125-0.012,0.242-0.018,0.354-0.018c0.752,0,1.408,0.152,1.967,0.455
					c0.561,0.305,1.024,0.697,1.393,1.176c0.367,0.48,0.641,1.018,0.82,1.613c0.18,0.596,0.27,1.186,0.27,1.77
					C51.543,21.279,51.435,21.826,51.221,22.307z M50.105,19.086c-0.154-0.516-0.379-0.977-0.678-1.385
					c-0.301-0.408-0.668-0.74-1.105-0.996c-0.434-0.256-0.938-0.385-1.504-0.385c-0.535,0-1.01,0.102-1.42,0.295
					c-0.414,0.197-0.762,0.463-1.043,0.805c-0.285,0.338-0.502,0.734-0.65,1.186c-0.146,0.453-0.221,0.934-0.221,1.445
					c0,0.521,0.076,1.039,0.232,1.56c0.158,0.52,0.387,0.986,0.691,1.402c0.305,0.416,0.678,0.754,1.121,1.014
					c0.443,0.26,0.949,0.389,1.516,0.389c0.537,0,1.008-0.102,1.416-0.305c0.408-0.203,0.75-0.476,1.025-0.822
					c0.275-0.344,0.484-0.746,0.631-1.205c0.143-0.461,0.215-0.941,0.215-1.445C50.332,20.119,50.256,19.602,50.105,19.086z"/>
				<path fill="#4C4948" d="M61.51,24.783c-0.025,0.035-0.068,0.053-0.133,0.053h-1.692c-0.07,0-0.168,0-0.287,0
					c-0.111,0-0.232-0.004-0.359-0.012c-0.127-0.008-0.248-0.021-0.361-0.041c-0.111-0.022-0.199-0.047-0.264-0.08
					c-0.07-0.029-0.086-0.078-0.041-0.137c0.043-0.059,0.098-0.078,0.16-0.053c0.082,0.031,0.145,0.047,0.193,0.047
					c0.088,0,0.16-0.041,0.215-0.119c0.059-0.082,0.103-0.176,0.141-0.289c0.033-0.111,0.059-0.225,0.07-0.342
					c0.014-0.115,0.018-0.213,0.018-0.295v-3.297h-4.773v3.264c0,0.191,0.014,0.357,0.037,0.496
					c0.023,0.141,0.068,0.254,0.139,0.342c0.066,0.088,0.162,0.154,0.287,0.199c0.123,0.043,0.285,0.057,0.484,0.041
					c0.08-0.008,0.125,0.024,0.133,0.096c0.008,0.072-0.027,0.111-0.107,0.119c-0.48,0.025-0.963,0.037-1.451,0.037
					c-0.504,0-1-0.012-1.488-0.037c-0.07-0.008-0.109-0.041-0.113-0.1c-0.004-0.061,0.029-0.1,0.102-0.115
					c0.178-0.031,0.31-0.066,0.41-0.107c0.094-0.041,0.166-0.096,0.215-0.168c0.047-0.072,0.076-0.168,0.082-0.287
					c0.01-0.121,0.012-0.281,0.012-0.482v-6.643c0-0.137-0.012-0.244-0.041-0.322c-0.029-0.08-0.066-0.141-0.113-0.176
					c-0.047-0.035-0.103-0.059-0.162-0.072c-0.061-0.012-0.117-0.021-0.174-0.029c-0.113-0.008-0.205-0.023-0.281-0.047
					c-0.076-0.024-0.131-0.076-0.162-0.156c-0.025-0.041-0.021-0.076,0.006-0.109c0.027-0.031,0.07-0.047,0.127-0.047
					c0.471,0,0.936,0.006,1.396,0.017c0.459,0.012,0.92,0.037,1.385,0.078c0.072,0.008,0.106,0.045,0.102,0.113
					c-0.004,0.068-0.041,0.104-0.113,0.104c-0.184,0.008-0.346,0.063-0.486,0.168c-0.141,0.102-0.209,0.26-0.209,0.467v2.758h4.76
					v-2.746c0-0.137-0.019-0.258-0.059-0.365c-0.041-0.109-0.121-0.178-0.24-0.211c-0.049-0.016-0.094-0.023-0.131-0.023
					c-0.121-0.008-0.24-0.023-0.355-0.047c-0.115-0.024-0.182-0.09-0.197-0.193c-0.01-0.031,0.004-0.059,0.035-0.082
					c0.033-0.025,0.068-0.037,0.109-0.037c0.471,0,0.939,0.004,1.406,0.012c0.469,0.01,0.936,0.027,1.398,0.061
					c0.074,0.008,0.109,0.041,0.115,0.102c0.004,0.059-0.029,0.098-0.104,0.115c-0.207,0.039-0.379,0.098-0.516,0.172
					c-0.135,0.076-0.203,0.238-0.203,0.486v6.621c0,0.039,0.008,0.109,0.025,0.209c0.014,0.1,0.035,0.203,0.059,0.311
					c0.023,0.109,0.051,0.207,0.084,0.295c0.031,0.088,0.063,0.137,0.096,0.145c0.016,0.016,0.055,0.025,0.115,0.029
					c0.059,0.004,0.107,0.01,0.148,0.018c0.088,0.008,0.178,0.021,0.27,0.043c0.092,0.02,0.174,0.064,0.246,0.137
					C61.519,24.709,61.531,24.746,61.51,24.783z"/>
				<path fill="#4C4948" d="M67.402,23.834c-0.027,0.189-0.053,0.379-0.076,0.572l-0.037,0.285
					c-0.016,0.059-0.055,0.084-0.119,0.084l-0.219,0.061H65.43c-0.184,0-0.367,0.002-0.551,0.006s-0.367,0.008-0.553,0.008
					c-0.336,0-0.666-0.006-0.994-0.014c-0.328-0.008-0.637-0.027-0.924-0.061c-0.08,0-0.117-0.033-0.113-0.1
					c0.004-0.068,0.045-0.104,0.125-0.104c0.152-0.008,0.274-0.039,0.365-0.096c0.092-0.057,0.162-0.133,0.211-0.227
					c0.047-0.098,0.08-0.207,0.096-0.33c0.016-0.125,0.023-0.254,0.023-0.391v-6.68c0-0.103-0.012-0.188-0.035-0.252
					c-0.025-0.064-0.059-0.113-0.102-0.15c-0.045-0.037-0.094-0.061-0.144-0.078c-0.053-0.016-0.106-0.031-0.162-0.049
					c-0.088-0.016-0.172-0.039-0.252-0.07c-0.08-0.031-0.16-0.076-0.24-0.131c-0.063-0.033-0.084-0.074-0.061-0.121
					c0.025-0.047,0.07-0.072,0.133-0.072h4.605c0.047,0,0.119-0.027,0.215-0.084c0.057-0.016,0.107-0.014,0.15,0.006
					c0.045,0.021,0.063,0.051,0.055,0.09c-0.025,0.225-0.059,0.449-0.102,0.672c-0.045,0.225-0.09,0.439-0.139,0.648
					c-0.008,0.031-0.016,0.061-0.023,0.084c-0.008,0.023-0.016,0.055-0.025,0.096c-0.014,0.065-0.063,0.096-0.145,0.096
					c-0.078,0-0.121-0.031-0.131-0.096c-0.033-0.367-0.154-0.609-0.365-0.727c-0.213-0.115-0.48-0.174-0.811-0.174
					c-0.063,0-0.131,0-0.203,0c-0.072,0-0.143,0.004-0.217,0.014c-0.078,0.008-0.164,0.01-0.252,0.01c-0.078,0-0.162,0-0.25,0
					c-0.064,0-0.105,0.006-0.125,0.014c-0.021,0.008-0.064,0.004-0.129-0.014v3.203h1.764c0.041,0,0.101-0.014,0.181-0.041
					c0.078-0.029,0.158-0.063,0.238-0.104c0.09-0.039,0.166-0.072,0.234-0.101c0.068-0.027,0.123-0.045,0.162-0.055
					c0.047-0.006,0.092,0,0.131,0.025c0.041,0.023,0.057,0.055,0.049,0.096c-0.016,0.119-0.031,0.242-0.049,0.365
					c-0.016,0.123-0.031,0.246-0.045,0.365c-0.051,0.297-0.086,0.6-0.109,0.912c0,0.047-0.029,0.08-0.084,0.096
					c-0.057,0.017-0.109,0.006-0.156-0.035c-0.049-0.049-0.086-0.105-0.113-0.168c-0.029-0.064-0.051-0.121-0.066-0.168
					c-0.025-0.072-0.047-0.145-0.066-0.217c-0.02-0.07-0.049-0.123-0.09-0.154c-0.047-0.049-0.148-0.086-0.299-0.115
					c-0.152-0.027-0.318-0.047-0.5-0.059c-0.178-0.012-0.356-0.018-0.531-0.018c-0.178,0-0.322,0-0.434,0h-0.205v3.236
					c0.146,0.248,0.359,0.426,0.643,0.533c0.283,0.107,0.559,0.162,0.822,0.162c0.344,0,0.641-0.092,0.893-0.275
					c0.254-0.184,0.422-0.455,0.51-0.814c0.01-0.033,0.029-0.053,0.063-0.061c0.031-0.008,0.063-0.01,0.094-0.006
					c0.031,0.002,0.063,0.016,0.09,0.035c0.029,0.02,0.039,0.047,0.031,0.078C67.469,23.461,67.432,23.646,67.402,23.834z"/>
				<path fill="#4C4948" d="M77.393,16.369c-0.027,0.025-0.055,0.041-0.076,0.049c-0.129,0.039-0.256,0.084-0.381,0.133
					c-0.121,0.047-0.185,0.139-0.185,0.275c0,1.334,0.008,2.67,0.019,4.006c0.012,1.334-0.035,2.664-0.139,3.992
					c-0.008,0.049-0.037,0.08-0.09,0.096c-0.053,0.016-0.102,0.008-0.15-0.023c-0.51-0.432-1.018-0.891-1.518-1.381
					c-0.5-0.486-0.99-0.988-1.475-1.504c-0.484-0.514-0.961-1.035-1.432-1.559c-0.473-0.523-0.936-1.037-1.393-1.541
					c-0.137-0.16-0.252-0.291-0.348-0.394c-0.096-0.104-0.215-0.236-0.359-0.396c-0.023,0.232-0.037,0.451-0.037,0.658
					c0,0.402,0.01,0.797,0.025,1.188c0.016,0.393,0.031,0.785,0.049,1.176c0.014,0.406,0.031,0.81,0.047,1.207
					c0.016,0.393,0.025,0.791,0.025,1.193c0,0.189,0.014,0.342,0.047,0.455c0.031,0.111,0.074,0.199,0.125,0.262
					c0.053,0.066,0.115,0.111,0.188,0.139c0.07,0.027,0.143,0.051,0.215,0.066c0.08,0.016,0.162,0.037,0.246,0.066
					c0.084,0.029,0.17,0.07,0.256,0.125c0.059,0.033,0.074,0.07,0.051,0.115c-0.025,0.043-0.068,0.064-0.133,0.064l-1.523-0.035
					c-0.207-0.008-0.42,0.002-0.635,0.031c-0.217,0.025-0.42,0.02-0.613-0.02c-0.07-0.016-0.102-0.053-0.09-0.109
					c0.014-0.055,0.055-0.092,0.127-0.107l0.168-0.035c0.184-0.041,0.334-0.121,0.449-0.246c0.117-0.123,0.174-0.285,0.174-0.484
					v-7.557c0-0.063,0.016-0.117,0.049-0.162c0.031-0.043,0.072-0.09,0.119-0.137c0.064-0.049,0.129-0.049,0.191,0
					c2.215,2.262,4.379,4.557,6.488,6.883c0-0.064,0.002-0.125,0.006-0.186c0.004-0.061,0.008-0.121,0.008-0.186
					c0-0.881-0.016-1.756-0.043-2.627c-0.027-0.871-0.041-1.746-0.041-2.627c0-0.184-0.021-0.328-0.063-0.43
					c-0.039-0.105-0.088-0.184-0.148-0.234c-0.061-0.053-0.127-0.088-0.197-0.104c-0.072-0.016-0.144-0.031-0.217-0.047
					c-0.088-0.016-0.166-0.031-0.234-0.049c-0.066-0.016-0.121-0.049-0.162-0.096c-0.047-0.031-0.061-0.068-0.041-0.107
					c0.02-0.039,0.063-0.061,0.127-0.061h0.863c0.279,0,0.563-0.002,0.852-0.006c0.287-0.004,0.574,0.002,0.863,0.02l0.023,0.201
					C77.447,16.33,77.42,16.346,77.393,16.369z"/>
			</g>
		</g>
		<g>
			<g>
				<path fill="#4C4948" d="M49.824,32.518c-0.055-0.02-0.096-0.039-0.119-0.059c-0.443-0.389-0.932-0.67-1.469-0.842
					c-0.641-0.205-1.363-0.273-2.17-0.199c-0.035,0.23-0.17,0.404-0.406,0.517c-0.213,0.102-0.465,0.145-0.76,0.125
					c-0.291-0.019-0.543-0.09-0.76-0.213c-0.236-0.129-0.371-0.291-0.408-0.488c-0.73-0.084-1.395-0.01-1.991,0.221
					c-0.463,0.182-0.932,0.486-1.409,0.908c-0.694-0.33-1.749-0.568-3.167-0.717c-1.362-0.141-3.025-0.24-4.988-0.295
					c-0.773-0.024-1.781-0.024-3.026,0c-0.201,0.006-0.465,0.01-0.79,0.016c-0.422,0.01-0.688,0.014-0.797,0.014
					c-0.641,0.016-1.183,0.025-1.631,0.029c-0.368,0.006-0.847,0.006-1.432,0c-0.848,0-1.336,0-1.469,0
					c-1.187,0-2.173,0.021-2.96,0.06c-1.451,0.072-3.496,0.104-6.133,0.09c-0.315,0-0.871,0.02-1.668,0.057
					c-0.694,0.041-1.23,0.051-1.608,0.029c-0.073-0.004-0.268-0.023-0.584-0.059c-0.236-0.027-0.426-0.039-0.568-0.027
					c-0.029,0-0.105,0.012-0.229,0.037c-0.117,0.02-0.209,0.031-0.273,0.037c-0.216,0.012-0.324-0.053-0.324-0.193
					c-0.006-0.143,0.121-0.211,0.377-0.207c0.078,0.004,0.179,0.016,0.303,0.029c0.127,0.019,0.204,0.029,0.227,0.029
					c0.331,0.012,0.702,0.002,1.115-0.022c0.472-0.025,0.8-0.037,0.981-0.037c0.541,0,1.597,0.01,3.166,0.029
					c0.64,0.006,1.639-0.02,2.997-0.074c1.392-0.053,2.385-0.078,2.974-0.074c0.271,0,0.694,0.01,1.27,0.029
					c0.552,0.022,0.972,0.031,1.262,0.031c0.414,0,1.151-0.027,2.214-0.082c0.937-0.043,1.674-0.057,2.215-0.037
					c0.049,0,0.081-0.006,0.096-0.021c0.005-0.01,0.008-0.027,0.008-0.053c0-0.023,0.003-0.041,0.008-0.051
					c0.015-0.016,0.043-0.021,0.089-0.021c0.245,0.072,0.959,0.094,2.139,0.057c2.072-0.066,3.755-0.16,5.049-0.277
					c1.78-0.168,3.328-0.422,4.643-0.762c0.01-0.006,0.061-0.06,0.154-0.17c0.065-0.074,0.171-0.106,0.318-0.096
					c0.377,0.369,0.87,0.654,1.476,0.856c0.644,0.217,1.301,0.297,1.969,0.236c-0.023-0.162,0.018-0.279,0.119-0.354
					c0.193-0.133,0.42-0.217,0.68-0.25c0.236-0.031,0.48-0.018,0.73,0.043c0.236,0.059,0.441,0.148,0.613,0.266
					c0.182,0.123,0.297,0.264,0.346,0.42c0.365,0.055,0.748,0.043,1.152-0.035c0.035-0.006,0.09-0.006,0.162,0
					c0.074,0.01,0.125,0.01,0.154,0c0.459-0.096,0.863-0.258,1.219-0.488c0.186-0.123,0.465-0.353,0.832-0.693
					c0.031,0.053,0.096,0.086,0.193,0.096c0.143,0.006,0.225,0.014,0.242,0.021c0.061,0.021,0.139,0.06,0.238,0.119
					c0.098,0.059,0.178,0.098,0.242,0.117c0.961,0.307,2.436,0.514,4.43,0.621c0.108,0.01,0.301,0.016,0.574,0.016
					c0.242,0,0.432,0.004,0.568,0.014c0.117,0.014,0.262,0.035,0.43,0.059c0.25,0.045,0.385,0.066,0.406,0.066
					c0.318,0.051,0.594,0.057,0.826,0.023c0.049,0.039,0.17,0.07,0.361,0.096c0.791,0.084,1.754,0.125,2.885,0.125
					c1.674,0.01,2.584,0.017,2.732,0.021c0.049,0,0.471,0.02,1.268,0.059c0.521,0.025,0.955,0.035,1.299,0.029
					c0.08-0.004,0.19-0.016,0.332-0.035c0.139-0.021,0.24-0.027,0.305-0.024c0.068,0,0.168,0.012,0.301,0.039
					c0.148,0.027,0.26,0.045,0.334,0.051c0.879,0.059,1.982,0.078,3.305,0.059c0.32-0.004,0.889-0.016,1.705-0.029
					c0.723-0.02,1.295-0.029,1.711-0.029c0.785-0.01,1.82-0.006,3.109,0.014c1.535,0.025,2.557,0.041,3.063,0.045
					c0.016,0,0.078-0.002,0.191-0.008c0.084-0.006,0.154-0.008,0.207-0.008c0.172,0.016,0.277,0.08,0.318,0.191
					c-0.109,0.08-0.258,0.117-0.443,0.113c-0.051-0.006-0.133-0.017-0.252-0.031c-0.113-0.014-0.199-0.022-0.258-0.022
					c-0.541-0.021-1.188-0.021-1.941-0.008c-0.143,0-0.447,0.008-0.916,0.023c-0.361,0.004-0.65,0.008-0.863,0.014
					c-0.525,0.006-1.346-0.006-2.457-0.029c-1.135-0.025-2.045-0.035-2.723-0.029c-0.059-0.016-0.102-0.004-0.125,0.037
					c-0.016,0.024-0.027,0.039-0.037,0.045c-0.016,0.008-0.039,0.012-0.074,0.006c-1.023,0.012-2.59-0.006-4.701-0.043
					c-2.176-0.037-3.748-0.051-4.717-0.045c-2.146,0.014-4.229,0.082-6.252,0.205c-0.234,0.016-0.77,0.035-1.602,0.059
					c-0.664,0.018-1.197,0.047-1.602,0.09c-0.211,0.023-0.539,0.09-0.988,0.191c-0.418,0.094-0.748,0.149-0.988,0.162
					c-0.02,0.016-0.057,0.043-0.111,0.082c-0.049,0.035-0.09,0.059-0.117,0.074C50.049,32.482,49.941,32.514,49.824,32.518z"/>
			</g>
		</g>
		<g>
			<path fill="#4C4948" d="M25.503,40.15l0.239-0.68l1.587-0.719c0.944-0.447,1.628-0.67,2.052-0.67c0.331,0,0.497,0.15,0.497,0.455
				c0,0.107-0.045,0.283-0.133,0.527c-0.089,0.244-0.238,0.59-0.446,1.041c-0.208,0.453-0.45,0.967-0.725,1.541
				c-0.274,0.576-0.56,1.166-0.858,1.772c0.43-0.291,0.806-0.561,1.128-0.811c0.323-0.248,0.702-0.563,1.137-0.939l0.018,0.609
				c-1.098,0.949-2.116,1.893-3.054,2.83c-0.566,1.104-1.067,1.938-1.503,2.498c-0.435,0.561-0.76,0.84-0.979,0.84
				c-0.153,0-0.231-0.15-0.231-0.455c0-0.371,0.083-0.744,0.248-1.117c0.166-0.377,0.421-0.77,0.765-1.186
				c0.343-0.414,0.749-0.836,1.219-1.266c0.726-1.43,1.238-2.471,1.54-3.119c0.3-0.648,0.45-1.072,0.45-1.273
				c0-0.125-0.06-0.189-0.181-0.189c-0.063,0-0.488,0.186-1.278,0.553c-0.789,0.371-1.281,0.555-1.475,0.555
				c-0.121,0-0.182-0.064-0.182-0.197C25.339,40.664,25.394,40.463,25.503,40.15z M31.001,35.705c0,0.172-0.065,0.412-0.195,0.721
				c-0.144,0.418-0.272,0.695-0.383,0.832c-0.112,0.137-0.282,0.207-0.51,0.207c-0.492,0-0.738-0.164-0.738-0.49
				c0-0.258,0.151-0.627,0.454-1.107c0.16-0.256,0.289-0.416,0.387-0.475c0.097-0.063,0.254-0.09,0.471-0.09
				C30.83,35.303,31.001,35.435,31.001,35.705z"/>
			<path fill="#4C4948" d="M35.437,41.668v0.574c-0.377,0.344-0.681,0.572-0.908,0.688c-0.229,0.113-0.56,0.16-0.988,0.137
				c-0.743,0.881-1.398,1.322-1.964,1.322c-0.321,0-0.612-0.107-0.875-0.318c-0.264-0.211-0.475-0.5-0.631-0.867
				c-0.158-0.365-0.237-0.773-0.237-1.227c0-0.365,0.122-0.771,0.365-1.219c0.244-0.445,0.559-0.861,0.943-1.248
				c0.387-0.385,0.8-0.697,1.241-0.936c0.44-0.236,0.849-0.355,1.227-0.355c0.269,0,0.479,0.043,0.634,0.125
				c0.155,0.082,0.232,0.197,0.232,0.348c0,0.115-0.065,0.244-0.197,0.395c0.218,0.045,0.366,0.121,0.445,0.227
				c0.081,0.107,0.121,0.299,0.121,0.58c0,0.273-0.064,0.619-0.192,1.037c-0.13,0.418-0.306,0.81-0.528,1.176l0.154,0.154h0.129
				c0.097,0,0.192-0.023,0.287-0.072c0.094-0.049,0.179-0.102,0.253-0.154C35.022,41.978,35.185,41.855,35.437,41.668z
				 M33.671,39.412c-0.476,0.285-0.882,0.545-1.219,0.775c-0.338,0.232-0.624,0.467-0.857,0.703
				c-0.235,0.238-0.393,0.479-0.473,0.717c-0.144,0.641-0.215,0.986-0.215,1.039c0,0.377,0.264,0.566,0.79,0.566
				c0.245,0,0.657-0.213,1.235-0.635c-0.098-0.27-0.147-0.527-0.147-0.773c0-0.359,0.076-0.729,0.225-1.102
				C33.158,40.328,33.379,39.896,33.671,39.412z"/>
			<path fill="#4C4948" d="M39.461,41.102c-0.829,1.098-1.459,1.879-1.892,2.344c-0.431,0.463-0.785,0.693-1.061,0.693
				c-0.217,0-0.416-0.09-0.6-0.27c-0.183-0.182-0.325-0.424-0.425-0.73c-0.099-0.305-0.15-0.633-0.15-0.982
				c0-0.229,0.022-0.434,0.064-0.617c0.044-0.184,0.125-0.385,0.246-0.605c0.12-0.219,0.277-0.459,0.475-0.715
				c0.198-0.258,0.439-0.551,0.727-0.875c0.171-0.201,0.315-0.369,0.432-0.508c0.118-0.137,0.232-0.23,0.343-0.279
				c0.112-0.047,0.294-0.072,0.546-0.072c0.183,0,0.357,0.025,0.523,0.072c0.166,0.049,0.249,0.1,0.249,0.152
				c0,0.101-0.084,0.287-0.254,0.557c-0.168,0.27-0.44,0.596-0.814,0.982c-0.374,0.387-0.808,0.766-1.3,1.137
				c-0.108,0.338-0.164,0.596-0.164,0.772c0,0.246,0.096,0.369,0.285,0.369c0.067,0,0.182-0.059,0.343-0.176
				c0.16-0.115,0.43-0.344,0.81-0.678c0.379-0.334,0.722-0.631,1.025-0.887c0.223-0.195,0.481-0.484,0.775-0.873
				c0.295-0.385,0.534-0.676,0.718-0.869c0.422-0.445,0.71-0.736,0.865-0.871c0.155-0.135,0.304-0.201,0.446-0.201
				c0.137,0,0.23,0.043,0.279,0.127c0.048,0.088,0.073,0.262,0.073,0.525c0,0.119-0.012,0.217-0.035,0.291
				c-0.023,0.074-0.069,0.17-0.141,0.287c-0.072,0.117-0.217,0.334-0.434,0.648c-0.216,0.314-0.474,0.686-0.773,1.115
				c-0.159,0.229-0.3,0.479-0.419,0.75c-0.121,0.271-0.182,0.477-0.182,0.613c0,0.297,0.118,0.447,0.354,0.447
				c0.193,0,0.419-0.08,0.676-0.24c0.259-0.16,0.653-0.449,1.187-0.867v0.574c-0.671,0.619-1.166,1.068-1.485,1.348
				c-0.321,0.281-0.598,0.492-0.833,0.635c-0.234,0.143-0.456,0.215-0.669,0.215c-0.48,0-0.721-0.287-0.721-0.857
				c0-0.219,0.072-0.512,0.215-0.881C38.909,42.332,39.142,41.799,39.461,41.102z"/>
			<path fill="#4C4948" d="M42.096,42.346v-0.557c0.309-0.367,0.543-0.678,0.703-0.938c-0.184-0.061-0.316-0.139-0.396-0.23
				c-0.084-0.092-0.127-0.229-0.127-0.412c0-0.205,0.086-0.467,0.258-0.781c0.172-0.313,0.383-0.609,0.635-0.883
				c0.252-0.275,0.48-0.451,0.685-0.531c0.08-0.041,0.158-0.061,0.232-0.061c0.115,0,0.172,0.055,0.172,0.162
				c0,0.098-0.088,0.295-0.266,0.594c1.178-0.186,1.922-0.275,2.228-0.275c0.121,0,0.203,0.012,0.25,0.033
				c0.098,0.053,0.178,0.172,0.24,0.361c0.063,0.189,0.094,0.379,0.094,0.566c0,0.121-0.051,0.25-0.158,0.391
				c-0.105,0.139-0.287,0.344-0.545,0.613c-0.303,0.326-0.559,0.68-0.764,1.064c-0.205,0.383-0.309,0.672-0.309,0.865
				c0,0.27,0.166,0.404,0.498,0.404c0.35,0,0.955-0.355,1.818-1.064v0.574c-0.475,0.498-0.867,0.891-1.176,1.176
				c-0.309,0.285-0.594,0.514-0.857,0.684c-0.264,0.168-0.498,0.252-0.703,0.252c-0.24,0-0.439-0.109-0.6-0.33
				c-0.16-0.221-0.242-0.539-0.242-0.957c0-0.246,0.064-0.525,0.189-0.84c0.125-0.314,0.311-0.656,0.553-1.027
				c0.244-0.367,0.518-0.736,0.82-1.102c-0.16,0.035-0.342,0.07-0.541,0.107c-0.199,0.037-0.412,0.076-0.635,0.115
				c-0.221,0.039-0.393,0.072-0.514,0.096C43.285,41.125,42.769,41.768,42.096,42.346z"/>
			<path fill="#4C4948" d="M53.096,40.133c-1.008,1.119-1.512,1.9-1.512,2.342c0,0.246,0.101,0.369,0.301,0.369
				c0.164,0,0.383-0.088,0.646-0.262c0.268-0.174,0.682-0.484,1.25-0.932v0.592c-0.813,0.801-1.436,1.379-1.871,1.734
				c-0.434,0.355-0.789,0.531-1.065,0.531c-0.469,0-0.703-0.309-0.703-0.926c0-0.184,0.029-0.363,0.086-0.541
				c0.059-0.178,0.137-0.361,0.236-0.553c0.1-0.193,0.252-0.467,0.459-0.824c0.205-0.357,0.443-0.762,0.711-1.215
				c-0.326,0.166-0.734,0.496-1.227,0.986c-0.32,0.311-0.592,0.604-0.814,0.881c-0.223,0.277-0.461,0.586-0.717,0.926
				c-0.254,0.34-0.44,0.57-0.557,0.688c-0.119,0.117-0.236,0.174-0.357,0.174c-0.182,0-0.352-0.191-0.506-0.574
				c-0.154-0.383-0.23-0.828-0.23-1.338c0-0.314,0.035-0.561,0.105-0.738c0.072-0.178,0.213-0.428,0.426-0.756
				c0.395-0.603,0.734-1.049,1.021-1.334c0.285-0.281,0.561-0.424,0.822-0.424c0.184,0,0.332,0.031,0.443,0.096
				c0.111,0.063,0.166,0.158,0.166,0.291c0,0.057-0.017,0.117-0.051,0.18c-0.035,0.063-0.072,0.121-0.115,0.172
				c-0.043,0.051-0.133,0.15-0.271,0.301c-0.904,1-1.355,1.649-1.355,1.947c0,0.166,0.055,0.248,0.164,0.248
				c0.068,0,0.201-0.109,0.398-0.33c0.197-0.221,0.451-0.508,0.764-0.867c0.313-0.355,0.68-0.729,1.105-1.119
				c0.428-0.391,0.912-0.764,1.455-1.123c0.303-0.213,0.555-0.318,0.756-0.318c0.092,0,0.182,0.125,0.27,0.377
				c0.09,0.252,0.133,0.508,0.133,0.764C53.463,39.684,53.34,39.875,53.096,40.133z"/>
			<path fill="#4C4948" d="M54.732,40.15c0.869-0.789,1.713-1.377,2.531-1.76c0.818-0.383,1.451-0.574,1.896-0.574
				c0.119,0,0.232,0.049,0.336,0.15c0.102,0.1,0.184,0.215,0.242,0.346c0.061,0.133,0.092,0.229,0.092,0.293
				c0,0.104-0.041,0.178-0.121,0.227c-0.08,0.049-0.221,0.107-0.42,0.176c0.039,0.092,0.092,0.209,0.154,0.354
				c0.063,0.141,0.111,0.258,0.146,0.346c0.033,0.09,0.051,0.168,0.051,0.236c0,0.137-0.139,0.393-0.416,0.768
				c-0.277,0.375-0.471,0.652-0.584,0.828c-0.111,0.178-0.168,0.395-0.168,0.652c0,0.424,0.197,0.635,0.584,0.635
				c0.402,0,1.027-0.375,1.879-1.125v0.525c-1.447,1.607-2.482,2.41-3.105,2.41c-0.223,0-0.381-0.074-0.477-0.219
				c-0.094-0.147-0.141-0.361-0.141-0.647c0-0.453,0.162-1.107,0.488-1.967c-0.834,0.928-1.455,1.586-1.861,1.979
				c-0.406,0.391-0.74,0.588-1.004,0.588c-0.127,0-0.283-0.109-0.473-0.326c-0.188-0.219-0.355-0.5-0.5-0.846
				c-0.146-0.346-0.221-0.705-0.221-1.076c0-0.27,0.025-0.494,0.078-0.674c0.051-0.18,0.15-0.365,0.301-0.553
				C54.17,40.707,54.408,40.459,54.732,40.15z M58.842,39.207c-1.486,0.68-2.547,1.256-3.178,1.732
				c-0.633,0.475-0.949,0.963-0.949,1.467c0,0.182,0.033,0.332,0.096,0.451c0.063,0.115,0.149,0.174,0.258,0.174
				c0.063,0,0.172-0.039,0.334-0.119c0.602-0.355,1.15-0.816,1.646-1.387C57.547,40.957,58.144,40.184,58.842,39.207z"/>
			<path fill="#4C4948" d="M64.959,41.59v0.637c-1.195,1.584-2.168,2.375-2.916,2.375c-0.406,0-0.725-0.221-0.957-0.664
				c-0.23-0.443-0.348-1.025-0.348-1.746c0-0.584,0.139-1.277,0.414-2.08c0.271-0.803,0.641-1.619,1.1-2.447
				c0.461-0.824,0.939-1.547,1.433-2.162c0.496-0.613,0.955-1.045,1.377-1.289c0.172-0.104,0.307-0.156,0.404-0.156
				c0.119,0,0.199,0.055,0.24,0.16c0.039,0.106,0.059,0.287,0.059,0.545c0,0.795-0.322,1.771-0.969,2.93s-1.547,2.34-2.701,3.547
				c-0.059,0.299-0.088,0.527-0.088,0.688c0,0.367,0.08,0.662,0.236,0.893c0.158,0.229,0.377,0.344,0.656,0.344
				c0.143,0,0.297-0.057,0.463-0.168c0.166-0.111,0.342-0.252,0.525-0.416C64.07,42.412,64.428,42.084,64.959,41.59z M62.394,40.047
				c0.297-0.293,0.586-0.623,0.861-0.996c0.279-0.371,0.539-0.769,0.785-1.191c0.248-0.424,0.439-0.803,0.58-1.143
				c0.141-0.336,0.211-0.592,0.211-0.762c0-0.133-0.047-0.199-0.137-0.199c-0.035,0-0.102,0.033-0.197,0.094
				c-0.35,0.287-0.742,0.846-1.178,1.68C62.887,38.361,62.576,39.201,62.394,40.047z"/>
		</g>
	</g>
</g>
</svg>
